<?xml version="1.0" encoding="UTF-8" standalone="no"?>
<svg
   xmlns:dc="http://purl.org/dc/elements/1.1/"
   xmlns:cc="http://creativecommons.org/ns#"
   xmlns:rdf="http://www.w3.org/1999/02/22-rdf-syntax-ns#"
   xmlns:svg="http://www.w3.org/2000/svg"
   xmlns="http://www.w3.org/2000/svg"
   xmlns:sodipodi="http://sodipodi.sourceforge.net/DTD/sodipodi-0.dtd"
   xmlns:inkscape="http://www.inkscape.org/namespaces/inkscape"
   width="210mm"
   height="297mm"
   viewBox="0 0 210 297"
   version="1.1"
   id="svg2203"
   sodipodi:docname="221127a.svg"
   inkscape:version="1.0.2 (e86c870879, 2021-01-15)">
  <defs
     id="defs2197" />
  <sodipodi:namedview
     id="base"
     pagecolor="#ffffff"
     bordercolor="#666666"
     borderopacity="1.0"
     inkscape:pageopacity="0.0"
     inkscape:pageshadow="2"
     inkscape:zoom="0.24748737"
     inkscape:cx="149.21995"
     inkscape:cy="502.85714"
     inkscape:document-units="mm"
     inkscape:current-layer="layer1"
     inkscape:document-rotation="0"
     showgrid="false"
     inkscape:window-width="1513"
     inkscape:window-height="1016"
     inkscape:window-x="397"
     inkscape:window-y="32"
     inkscape:window-maximized="0" />
  <metadata
     id="metadata2200">
    <rdf:RDF>
      <cc:Work
         rdf:about="">
        <dc:format>image/svg+xml</dc:format>
        <dc:type
           rdf:resource="http://purl.org/dc/dcmitype/StillImage" />
      </cc:Work>
    </rdf:RDF>
  </metadata>
  <g
     inkscape:label="Layer 1"
     inkscape:groupmode="layer"
     id="layer1">
    <path
       id="path2183-2-9-1"
       style="fill:#00ffff;stroke:#000000;stroke-width:0.999999px;stroke-linecap:butt;stroke-linejoin:miter;stroke-opacity:1"
       d="M -47.310547 -393.27539 L -78.650391 -367.82227 L -97.890625 -318.5918 L -72.349609 -271.31836 L -99.833984 -278.66797 L -74.914062 -210.83008 L -74.941406 -135.61719 L -81.886719 -149.89062 L -126.67188 -165.60547 L -151.59766 -156.25391 L -164.29297 -106.2832 C -164.29297 -106.2832 -117.98409 -59.76123 -111.66797 -57.908203 C -105.35189 -56.055176 -80.203125 -57.300781 -80.203125 -57.300781 L -105.13477 -19.400391 L -141.92578 5.6523438 L -115.42188 49.951172 L -123.82617 82.451172 L -94.550781 95.5625 L -94.550781 109.52148 L -139.24805 93.828125 L -224.9668 125.1875 L -223.37891 182.79492 L -98.355469 259.90234 L -117.19336 259.90234 C -123.43347 259.90234 -118.01895 285.43675 -119.1875 292.125 C -120.35605 298.81321 -88.791016 312.60156 -88.791016 312.60156 L -115.6582 315.79688 L -112.40625 401.64844 L -254.11523 321.96094 L -246.44141 188.09375 L -303.53516 156.30664 L -342.66406 169.24219 L -337.08789 257.98047 L -348.02539 266.52344 L -357.58203 299.81445 L -371.17383 288.24219 L -373.63672 275.11914 L -403.125 261.29297 L -403.2207 181.69922 L -443.95898 161.36328 L -473.58594 165.10156 L -477.01562 138.78711 L -498.34766 171.55469 L -502.66992 206.63477 L -516.54883 195.32422 L -514.88281 150.20898 L -539.76367 129.42578 L -560.18555 74.519531 L -597.01367 64.417969 L -621.43359 79.425781 L -638.13672 108.35547 L -632.95508 135.56836 L -665.47852 106.85352 C -665.47852 106.85352 -684.17729 113.19104 -692.11328 112.62891 C -700.04931 112.06678 -723.36719 81.041016 -723.36719 81.041016 L -739.82031 52.271484 L -783.56641 28.955078 L -844.65625 58.408203 L -838.2832 98.275391 L -805.26758 139.55273 L -751.55664 141.07031 L -771.66602 161.19727 L -700.45508 173.53516 L -635.33203 211.16602 L -651.16797 210.04297 L -687.16797 240.9707 L -691.5332 267.23438 L -654.60547 303.21484 C -654.60547 303.21484 -591.16125 286.37153 -586.39844 281.82812 C -581.63563 277.28475 -570.14062 254.88086 -570.14062 254.88086 L -549.7832 295.42188 L -546.48242 339.81055 L -494.86719 339.00781 L -470.92188 362.53516 L -444.92969 343.73828 L -432.8418 350.71875 L -468.78125 381.58008 L -484.48242 471.49414 L -433.79883 498.92383 L -304.50977 429.20312 L -313.92773 445.51758 C -317.04781 450.92166 -292.22746 458.99934 -287.01953 463.35547 C -281.81164 467.71156 -254.08789 447.26953 -254.08789 447.26953 L -264.75586 472.13477 L -188.7793 512.24414 L -328.64453 595.12305 L -440.74023 521.54492 L -496.81641 555.0957 L -505.17969 595.44922 L -425.54102 634.99023 L -423.61133 648.73242 L -399.55859 673.6543 L -416.37695 679.63867 L -428.9707 675.21094 L -455.68945 693.83594 L -524.66992 654.12305 L -562.64844 679.23438 L -574.22461 706.75977 L -598.72852 696.57422 L -581.01562 731.43164 L -552.79883 752.7168 L -569.5332 759.08008 L -607.77148 735.08008 L -638.21094 746.23438 L -695.9707 736.46875 L -723.13281 763.31055 L -722.3457 791.96484 L -705.64258 820.89453 L -679.48633 830.01172 L -720.61523 843.82031 C -720.61523 843.82031 -724.47682 863.18367 -728.93164 869.77539 C -733.38646 876.36711 -771.91406 881.04883 -771.91406 881.04883 L -805.05664 880.91211 L -847.12305 907.13867 L -852.1582 974.77148 L -814.44727 989.18555 L -762.19336 981.23242 L -734.02148 935.47656 L -726.64648 962.95312 L -680.35547 907.45312 L -615.20508 869.86914 L -624.0957 883.02148 L -615.3125 929.66406 L -594.75 946.57617 L -545.12695 932.58594 C -545.12695 932.58594 -527.99161 869.2187 -529.54492 862.82227 C -531.09819 856.42587 -544.75195 835.26953 -544.75195 835.26953 L -499.46289 837.91016 L -459.37109 857.24609 L -434.25977 812.14453 L -401.91211 803.17188 L -405.19336 771.26367 L -393.10352 764.2832 L -384.34766 810.83984 L -314.33008 869.39453 L -265.23438 839.21484 L -260.96875 692.38672 L -251.54883 708.70117 C -248.42877 714.10525 -229.02489 696.65048 -222.64844 694.31836 C -216.272 691.98624 -220.11133 657.75391 -220.11133 657.75391 L -203.91211 679.42578 L -131.1875 633.68164 L -129.3457 796.25 L -249.11328 856.53906 L -248.0957 921.87695 L -217.33008 949.29492 L -143.26758 900.09766 L -130.40039 905.29688 L -96.791016 896.92773 L -100.01758 914.48438 L -110.15039 923.17969 L -107.38086 955.63086 L -176.26172 995.51172 L -173.50586 1040.959 L -155.45508 1064.7461 L -176.52734 1080.875 L -137.48438 1082.9648 L -104.94141 1069.168 L -107.79883 1086.8438 L -147.70117 1107.957 L -153.26172 1139.8965 L -190.59961 1185.0371 L -180.93359 1221.9805 L -155.72656 1235.625 L -122.32031 1235.625 L -101.3457 1217.5312 L -109.95117 1260.0547 C -109.95117 1260.0547 -95.112031 1273.0806 -91.630859 1280.2344 C -88.14965 1287.3882 -103.36133 1323.0938 -103.36133 1323.0938 L -120.05078 1351.7285 L -118.37109 1401.2715 L -62.318359 1439.4492 L -30.978516 1413.998 L -11.738281 1364.7676 L -37.279297 1317.4922 L -9.7949219 1324.8438 L -34.714844 1257.0059 L -34.6875 1181.791 L -27.742188 1196.0664 L 17.042969 1211.7812 L 41.96875 1202.4297 L 54.664062 1152.459 C 54.664062 1152.459 8.3551822 1105.937 2.0390625 1104.084 C -4.2770194 1102.231 -29.425781 1103.4766 -29.425781 1103.4766 L -4.4941406 1065.5762 L 32.296875 1040.5234 L 5.7929688 996.22461 L 14.197266 963.72461 L -15.078125 950.61133 L -15.078125 936.65234 L 29.619141 952.34766 L 115.33789 920.98828 L 113.75 863.38086 L -11.273438 786.27148 L 7.5644531 786.27148 C 13.804567 786.27148 8.3900394 760.73903 9.5585938 754.05078 C 10.727148 747.36257 -20.837891 733.57227 -20.837891 733.57227 L 6.0292969 730.37891 L 2.7773438 644.52539 L 144.48633 724.21484 L 136.8125 858.08203 L 193.90625 889.86719 L 233.03516 876.93359 L 227.45898 788.19531 L 238.39648 779.65234 L 247.95312 746.36133 L 261.54492 757.93359 L 264.00781 771.05469 L 293.49609 784.88086 L 293.5918 864.47656 L 334.33008 884.8125 L 363.95703 881.07422 L 367.38672 907.38672 L 388.71875 874.61914 L 393.04102 839.53906 L 406.91992 850.85156 L 405.25391 895.96484 L 430.13477 916.75 L 450.55664 971.6543 L 487.38477 981.75781 L 511.80469 966.74805 L 528.50781 937.81836 L 523.32617 910.60742 L 555.84961 939.32227 C 555.84961 939.32227 574.54839 932.98279 582.48438 933.54492 C 590.4204 934.10705 613.73828 965.13281 613.73828 965.13281 L 630.19141 993.9043 L 673.9375 1017.2207 L 735.02734 987.76758 L 728.6543 947.90039 L 695.63867 906.62305 L 641.92773 905.10547 L 662.03711 884.97852 L 590.82617 872.64062 L 525.70312 835.00977 L 541.53906 836.13281 L 577.53906 805.20508 L 581.9043 778.94141 L 544.97656 742.96094 C 544.97656 742.96094 481.53234 759.80425 476.76953 764.34766 C 472.00672 768.89103 460.51172 791.29492 460.51172 791.29492 L 440.1543 750.75391 L 436.85352 706.36523 L 385.23828 707.16797 L 361.29297 683.64062 L 335.30078 702.43555 L 323.21289 695.45703 L 359.15234 664.5957 L 374.85352 574.68164 L 324.16992 547.25195 L 194.88086 616.97266 L 204.29883 600.6582 C 207.4189 595.25412 182.59855 587.17644 177.39062 582.82031 C 172.18274 578.46422 144.45898 598.90625 144.45898 598.90625 L 155.12695 574.04102 L 79.150391 533.93164 L 219.01562 451.05078 L 331.11133 524.63086 L 387.1875 491.07812 L 395.55078 450.72656 L 315.91211 411.18555 L 313.98242 397.44141 L 289.92969 372.52148 L 306.74805 366.53516 L 319.3418 370.96289 L 346.06055 352.33984 L 415.04102 392.05273 L 453.01953 366.94141 L 464.5957 339.41406 L 489.09961 349.59961 L 471.38672 314.74414 L 443.16992 293.45898 L 459.9043 287.0957 L 498.14258 311.0957 L 528.58203 299.94141 L 586.3418 309.70703 L 613.50391 282.86328 L 612.7168 254.21094 L 596.01367 225.28125 L 569.85742 216.16406 L 610.98633 202.35352 C 610.98633 202.35352 614.84792 182.99014 619.30273 176.39844 C 623.75755 169.8067 662.28516 165.12695 662.28516 165.12695 L 695.42773 165.26367 L 737.49414 139.03711 L 742.5293 71.404297 L 704.81836 56.990234 L 652.56445 64.943359 L 624.39258 110.69922 L 617.01758 83.222656 L 570.72656 138.72266 L 505.57617 176.30664 L 514.4668 163.1543 L 505.68359 116.51172 L 485.12109 99.599609 L 435.49805 113.58984 C 435.49805 113.58984 418.36271 176.95513 419.91602 183.35156 C 421.46929 189.74797 435.12305 210.90625 435.12305 210.90625 L 389.83398 208.26367 L 349.74219 188.92773 L 324.63086 234.03125 L 292.2832 243.00391 L 295.56445 274.91211 L 283.47461 281.89258 L 274.71875 235.33594 L 204.70117 176.78125 L 155.60547 206.95898 L 151.33984 353.78711 L 141.91992 337.47266 C 138.79987 332.06856 119.39601 349.52529 113.01953 351.85742 C 106.64309 354.18953 110.48242 388.42188 110.48242 388.42188 L 94.283203 366.75 L 21.558594 412.49414 L 19.716797 249.92578 L 139.48438 189.63672 L 138.4668 124.29883 L 107.70117 96.880859 L 33.638672 146.07812 L 20.771484 140.87695 L -12.837891 149.24805 L -9.6113281 131.68945 L 0.52148438 122.99609 L -2.2480469 90.544922 L 66.632812 50.664062 L 63.876953 5.2167969 L 45.826172 -18.572266 L 66.898438 -34.699219 L 27.855469 -36.789062 L -4.6875 -22.992188 L -1.8300781 -40.667969 L 38.072266 -61.783203 L 43.632812 -93.720703 L 80.970703 -138.86133 L 71.304688 -175.80469 L 46.097656 -189.44922 L 12.691406 -189.44922 L -8.2832031 -171.35547 L 0.32226562 -213.87891 C 0.32226562 -213.87891 -14.516875 -226.90476 -17.998047 -234.05859 C -21.479256 -241.21245 -6.2675781 -276.91992 -6.2675781 -276.91992 L 10.421875 -305.55273 L 8.7421875 -355.09766 L -47.310547 -393.27539 z M -54.947266 460.31055 L -0.51367188 491.58398 L -0.38085938 554.36133 L -54.681641 585.86523 L -109.11523 554.5918 L -109.24805 491.81445 L -54.947266 460.31055 z "
       transform="scale(0.26458333)" />
  </g>
</svg>
