<?xml version="1.0" encoding="UTF-8" standalone="no"?>
<svg
   xmlns:dc="http://purl.org/dc/elements/1.1/"
   xmlns:cc="http://creativecommons.org/ns#"
   xmlns:rdf="http://www.w3.org/1999/02/22-rdf-syntax-ns#"
   xmlns:svg="http://www.w3.org/2000/svg"
   xmlns="http://www.w3.org/2000/svg"
   xmlns:sodipodi="http://sodipodi.sourceforge.net/DTD/sodipodi-0.dtd"
   xmlns:inkscape="http://www.inkscape.org/namespaces/inkscape"
   width="210mm"
   height="297mm"
   viewBox="0 0 210 297"
   version="1.1"
   id="svg853"
   inkscape:version="1.0.2 (e86c870879, 2021-01-15)"
   sodipodi:docname="star-of-beth.svg">
  <defs
     id="defs847" />
  <sodipodi:namedview
     id="base"
     pagecolor="#ffffff"
     bordercolor="#666666"
     borderopacity="1.0"
     inkscape:pageopacity="0.0"
     inkscape:pageshadow="2"
     inkscape:zoom="0.35"
     inkscape:cx="424.28571"
     inkscape:cy="410.99002"
     inkscape:document-units="mm"
     inkscape:current-layer="layer1"
     inkscape:document-rotation="0"
     showgrid="false"
     inkscape:window-width="1920"
     inkscape:window-height="992"
     inkscape:window-x="0"
     inkscape:window-y="32"
     inkscape:window-maximized="1" />
  <metadata
     id="metadata850">
    <rdf:RDF>
      <cc:Work
         rdf:about="">
        <dc:format>image/svg+xml</dc:format>
        <dc:type
           rdf:resource="http://purl.org/dc/dcmitype/StillImage" />
        <dc:title></dc:title>
      </cc:Work>
    </rdf:RDF>
  </metadata>
  <g
     inkscape:label="Layer 1"
     inkscape:groupmode="layer"
     id="layer1">
    <path
       id="path1437-3-6"
       style="fill:#7eff00;fill-opacity:1;stroke:#000000;stroke-width:2.25856;stroke-miterlimit:4;stroke-dasharray:none;stroke-opacity:1"
       inkscape:transform-center-x="-2.6269692e-06"
       inkscape:transform-center-y="-3.6809085e-06"
       d="M 63.142319,5.9249245 56.599059,48.31975 35.1492,32.605467 50.863489,54.055835 8.4686597,60.599105 50.863489,67.142375 35.1492,88.592744 56.599059,72.877941 63.142319,188.29829 69.685589,72.877941 91.135969,88.592744 75.421679,67.142375 117.81651,60.599105 75.421679,54.055835 91.135969,32.605467 69.685589,48.31975 Z"
       sodipodi:nodetypes="ccccccccccccccccc" />
  </g>
</svg>
