<?xml version="1.0" encoding="UTF-8" standalone="no"?>
<!-- Created with Inkscape (http://www.inkscape.org/) -->

<svg
   width="210mm"
   height="297mm"
   viewBox="0 0 210 297"
   version="1.1"
   id="svg319"
   inkscape:version="1.2.2 (b0a8486541, 2022-12-01)"
   sodipodi:docname="dailia-simple.svg"
   xmlns:inkscape="http://www.inkscape.org/namespaces/inkscape"
   xmlns:sodipodi="http://sodipodi.sourceforge.net/DTD/sodipodi-0.dtd"
   xmlns="http://www.w3.org/2000/svg"
   xmlns:svg="http://www.w3.org/2000/svg">
  <sodipodi:namedview
     id="namedview321"
     pagecolor="#ffffff"
     bordercolor="#666666"
     borderopacity="1.0"
     inkscape:showpageshadow="2"
     inkscape:pageopacity="0.0"
     inkscape:pagecheckerboard="0"
     inkscape:deskcolor="#d1d1d1"
     inkscape:document-units="mm"
     showgrid="false"
     inkscape:zoom="0.25795558"
     inkscape:cx="1071.89"
     inkscape:cy="459.38142"
     inkscape:window-width="1920"
     inkscape:window-height="997"
     inkscape:window-x="0"
     inkscape:window-y="27"
     inkscape:window-maximized="1"
     inkscape:current-layer="layer1" />
  <defs
     id="defs316" />
  <g
     inkscape:label="Layer 1"
     inkscape:groupmode="layer"
     id="layer1">
    <path
       id="path22828"
       style="fill:#aa0000;fill-opacity:1;stroke-width:4.33274;stroke-linejoin:bevel"
       d="m -259.02776,-531.68773 c -41.40338,37.36863 -72.26445,97.93233 -86.38594,169.52918 -47.99099,-54.92521 -104.9594,-91.95395 -159.47709,-103.65827 -17.11958,53.05414 -13.54186,120.88741 10.01593,189.89745 -69.01817,-23.559 -136.85771,-27.13323 -189.91298,-10.00559 11.7,54.50113 48.70923,111.45209 103.60817,159.43523 -71.53277,14.11033 -132.05377,44.931172 -169.42947,86.283112 37.3793,41.3452501 97.8976,72.159991 169.4243,86.267081 -54.9019,47.98884 -91.9097,104.946007 -103.603,159.450737 53.07812,17.12652 120.94703,13.53715 189.98636,-10.04797 -23.58394,69.01403 -27.18812,136.86329 -10.08931,189.94035 54.51769,-11.70434 111.4861,-48.73303 159.47709,-103.65828 14.09701,71.57055 44.92016,132.13008 86.28569,169.52867 41.35608,-37.37947 72.17889,-97.90853 86.28724,-169.45012 48.01346,54.9142 104.997477,91.91572 159.517387,103.57973 C 3.7581072,332.34101 0.15372719,264.52194 -23.413723,195.53713 45.629937,219.08698 113.4846,222.63544 166.5318,205.46986 154.79489,150.98172 117.77093,94.057143 62.878167,46.101293 134.40804,32.015743 194.9436,1.2228621 232.35258,-40.106368 194.98331,-81.498308 134.43004,-112.35099 62.848197,-126.47061 117.76221,-174.43745 154.79829,-231.37991 166.5318,-285.8831 c -53.06985,-17.1652 -120.953663,-13.60211 -190.018903,9.97355 23.59327019,-68.98793 27.2237802,-136.82209 10.16372,-189.90727 -54.51891,11.66374 -111.502337,48.66455 -159.515317,103.57714 -14.08477,-71.51521 -44.87013,-132.03988 -86.18906,-169.44805 z m -0.0806,382.40784 c 0.68727,1.75921 1.34433,3.54411 1.96732,5.35368 5.13883,14.94801 8.65503,31.01436 11.00398,47.349052 0.24909,1.75046 0.48169,3.50547 0.70642,5.26273 2.06935,-2.71126 4.17017,-5.39131 6.30865,-8.03 10.38237,-12.769362 21.58567,-24.753432 33.70027,-34.640782 0.27913,-0.2257 0.55854,-0.45126 0.83768,-0.67696 -0.28452,1.8671 -0.60783,3.74066 -0.97307,5.61929 -3.02336,15.51477 -8.01213,31.187532 -14.14487,46.508272 -0.66156,1.64554 -1.34312,3.28567 -2.02934,4.92477 3.1546,-1.31617 6.32015,-2.59015 9.49813,-3.80856 15.37599,-5.86765 31.07045,-10.64413 46.50569,-13.14958 0.35455,-0.0558 0.70903,-0.11195 1.0635,-0.16795 -1.17986,1.47476 -2.39686,2.93627 -3.65249,4.38061 -10.37602,11.92439 -22.53167,23.00304 -35.50326,33.20469 -1.39868,1.0966 -2.80918,2.18206 -4.2261,3.26079 3.39196,0.43766 6.77256,0.91753 10.13582,1.45159 16.25017,2.60655 32.22931,6.31727 46.84934,11.8649 0.33497,0.12885 0.67065,0.2577 1.00562,0.38654 -1.75921,0.6872 -3.5441,1.34433 -5.35368,1.96733 -14.94811,5.13875 -31.0145,8.6551 -47.34905,11.00397 -1.75001,0.24902 -3.50392,0.48391 -5.26066,0.70849 2.71044,2.06913 5.39006,4.16877 8.02794,6.30659 12.76971,10.3824401 24.75354,21.5863501 34.64078,33.70079 0.2257,0.27906 0.45125,0.55809 0.67696,0.83715 -1.8672,-0.28437 -3.74119,-0.60783 -5.61982,-0.97306 -15.51484,-3.02374 -31.18648,-8.0116899 -46.50723,-14.14487987 -1.64762,-0.66238003 -3.28917,-1.34996003 -4.93045,-2.03708003 1.78133,4.27047 3.47889,8.56241 5.07256,12.8751799 5.39158,14.646421 9.8247,29.546671 12.05817,44.200411 -1.19121,-0.95259 -2.37115,-1.93415 -3.54345,-2.93419 -12.169,-10.42893 -23.42406,-22.75512 -33.82481,-35.897551 -1.16475,-1.48538 -2.31751,-2.98372 -3.46283,-4.49017 -0.58899,4.56793 -1.26543,9.111301 -2.03812,13.622431 -2.65394,15.37964 -6.26462,30.50061 -11.65717,44.30789 -0.55536,-1.42058 -1.08667,-2.86073 -1.60197,-4.31292 -5.32426,-15.11583 -8.90844,-31.4184 -11.34453,-48.000171 -0.26748,-1.87871 -0.51723,-3.76293 -0.75706,-5.6503 -2.8011,3.66855 -5.6628,7.275131 -8.59379,10.802961 -9.98836,11.99254 -20.67543,23.28191 -32.24919,32.54271 0.22937,-1.50794 0.48898,-3.02037 0.76894,-4.53564 2.9471,-15.75272 7.99408,-31.663481 14.17536,-47.2420709 0.70649,-1.75770997 1.43393,-3.51049 2.16886,-5.2617 -4.25665,1.7749 -8.53508,3.46604003 -12.83384,5.05447 -14.64635,5.39159 -29.54569,9.8252199 -44.19937,12.0586999 0.95259,-1.19122 1.93363,-2.37211 2.93367,-3.54449 10.42882,-12.1689999 22.75511,-23.42339 35.89755,-33.82429 1.48528,-1.16468 2.98214,-2.3187 4.48862,-3.46387 -4.5671,-0.59064 -9.11093,-1.26454 -13.62139,-2.03709 -15.37991,-2.65401 -30.50015,-6.26402 -44.30738,-11.65665 1.42058,-0.55529 2.86072,-1.08726 4.31292,-1.60249 15.11615,-5.32424 31.41808,-8.90792 48.00017,-11.344 1.87888,-0.26748 3.76326,-0.51738 5.65082,-0.75706 -3.66879,-2.80125 -7.27588,-5.66317 -10.80399,-8.59431 -11.99237,-9.98835 -23.28163,-20.67539 -32.54272,-32.2492 1.50787,0.22944 3.02089,0.48914 4.53616,0.76895 15.75306,2.94713 31.66292,7.99471 47.24156,14.17588 1.75843,0.70685 3.51119,1.43981 5.26324,2.17506 -1.31203,-3.14548 -2.5818,-6.30253 -3.79666,-9.47126 0.31016,-5.22503 -22.96472,-56.091442 -8.93693,-43.916182 11.9243,10.37606 23.00253,22.53145 33.20418,35.503262 1.0978,1.4001 2.18351,2.81286 3.26336,4.23127 0.43653,-3.39367 0.91524,-6.77601 1.44953,-10.140992 2.60656,-16.25009 6.31742,-32.22991 11.86491,-46.84985 0.12892,-0.33501 0.25777,-0.67011 0.38654,-1.00511 z"
       sodipodi:nodetypes="cccccccccccccccccccccccccccccccccccccccccccccccccccccccccccccccccccccccccccccccccccccccccc" />
    <path
       id="path22828-3"
       style="fill:#aa0000;fill-opacity:1;stroke-width:4.33274;stroke-linejoin:bevel"
       d="m 505.66866,-68.450691 c 0.6873,1.75921 1.3444,3.54411 1.9674,5.35368 5.1388,14.94801 8.655,31.01436 11.0039,47.34905 0.2491,1.750457 0.4817,3.505467 0.7065,5.262727 2.0693,-2.71126 4.1701,-5.391307 6.3086,-8.029997 10.3824,-12.76936 21.5857,-24.75343 33.7003,-34.64078 0.2791,-0.2257 0.5585,-0.45126 0.8377,-0.67696 -0.2846,1.8671 -0.6079,3.74066 -0.9731,5.61929 -3.0234,15.51477 -8.0121,31.18753 -14.1449,46.5082672 -0.6615,1.64554 -1.3431,3.28567 -2.0293,4.92477 3.1546,-1.31617 6.3201,-2.59015 9.4981,-3.80856 15.376,-5.86765 31.0705,-10.6441302 46.5057,-13.1495802 0.3545,-0.0558 0.709,-0.11195 1.0635,-0.16795 -1.1799,1.47476 -2.3969,2.93627 -3.6525,4.3806102 -10.376,11.92439 -22.5317,23.0030398 -35.5033,33.2046928 -1.3986,1.0966 -2.8091,2.18206 -4.2261,3.26079 3.392,0.43766 6.7726,0.91753 10.1359,1.45159 16.2501,2.60655 32.2293,6.31727 46.8493,11.8649 0.335,0.12885 0.6707,0.2577 1.0056,0.38654 -1.7592,0.6872 -3.5441,1.34433 -5.3537,1.96733 -14.9481,5.13875 -31.0145,8.6551 -47.349,11.00397 -1.75,0.24902 -3.5039,0.48391 -5.2607,0.70849 2.7105,2.06913 5.3901,4.16877 8.028,6.30659 12.7697,10.38244 24.7535,21.586351 34.6408,33.700791 0.2257,0.27906 0.4512,0.55809 0.6769,0.83715 -1.8672,-0.28437 -3.7412,-0.60783 -5.6198,-0.97306 -15.5148,-3.02374 -31.1865,-8.01169 -46.5072,-14.14488 -1.6477,-0.66238 -3.2892,-1.34996 -4.9305,-2.03708 1.7813,4.27047 3.4789,8.56241 5.0726,12.87518 5.3916,14.64642 9.8247,29.54667 12.0581,44.20041 -1.1912,-0.95259 -2.3711,-1.93415 -3.5434,-2.93419 -12.169,-10.42893 -23.4241,-22.75512 -33.8248,-35.897551 -1.1648,-1.485379 -2.3175,-2.983719 -3.4628,-4.490169 -0.589,4.567929 -1.2655,9.1113 -2.0382,13.62243 -2.6539,15.37964 -6.2646,30.50061 -11.6571,44.30789 -0.5554,-1.42058 -1.0867,-2.86073 -1.602,-4.31292 -5.3243,-15.11583 -8.9084,-31.4184 -11.3445,-48.000171 -0.2675,-1.878709 -0.5173,-3.762929 -0.7571,-5.650299 -2.8011,3.66855 -5.6628,7.275129 -8.5938,10.80296 -9.98834,11.99254 -20.67541,23.28191 -32.24917,32.54271 0.22937,-1.50794 0.48898,-3.02037 0.76894,-4.53564 2.9471,-15.75272 7.99408,-31.663481 14.17536,-47.24207 0.70649,-1.75771 1.43393,-3.51049 2.16886,-5.2617 -4.25665,1.7749 -8.53508,3.46604 -12.83384,5.05447 -14.64635,5.39159 -29.54569,9.82522 -44.19937,12.0587 0.95259,-1.19122 1.93363,-2.37211 2.93367,-3.54449 10.42882,-12.169 22.75511,-23.423391 35.89755,-33.824291 1.48528,-1.16468 2.98214,-2.3187 4.48862,-3.46387 -4.5671,-0.59064 -9.11093,-1.26454 -13.62139,-2.03709 -15.37991,-2.65401 -30.50015,-6.26402 -44.30738,-11.65665 1.42058,-0.55529 2.86072,-1.08726 4.31292,-1.60249 15.11615,-5.32424 31.41808,-8.90792 48.00017,-11.344 1.87888,-0.26748 3.76326,-0.51738 5.65082,-0.75706 -3.66879,-2.80125 -7.27588,-5.66317 -10.80399,-8.594313 -11.99237,-9.9883498 -23.28163,-20.6753898 -32.54272,-32.2492 1.50787,0.22944 3.02089,0.48914 4.53616,0.76895 15.75306,2.94713 31.66292,7.9947102 47.24156,14.1758802 1.75843,0.70685 3.51119,1.43981 5.26324,2.17506 -1.31203,-3.14548 -2.5818,-6.30253 -3.79666,-9.47126 0.31016,-5.2250302 -22.96472,-56.0914372 -8.93693,-43.9161772 11.9243,10.37606 23.00253,22.53145 33.20418,35.50326 1.0978,1.400097 2.1835,2.812857 3.2634,4.231267 0.4365,-3.39367 0.9152,-6.776007 1.4495,-10.140987 2.6065,-16.25009 6.3174,-32.22991 11.8649,-46.84985 0.1289,-0.33501 0.2578,-0.67011 0.3865,-1.00511 z"
       sodipodi:nodetypes="ccccccccccccccccccccccccccccccccccccccccccccccccccccccccccccccccc" />
  </g>
</svg>
