<?xml version="1.0" encoding="UTF-8" standalone="no"?>
<!-- Created with Inkscape (http://www.inkscape.org/) -->

<svg
   width="210mm"
   height="297mm"
   viewBox="0 0 210 297"
   version="1.1"
   id="svg1943"
   inkscape:version="1.2.2 (b0a8486541, 2022-12-01)"
   sodipodi:docname="hex.svg"
   xmlns:inkscape="http://www.inkscape.org/namespaces/inkscape"
   xmlns:sodipodi="http://sodipodi.sourceforge.net/DTD/sodipodi-0.dtd"
   xmlns="http://www.w3.org/2000/svg"
   xmlns:svg="http://www.w3.org/2000/svg">
  <sodipodi:namedview
     id="namedview1945"
     pagecolor="#ffffff"
     bordercolor="#666666"
     borderopacity="1.0"
     inkscape:showpageshadow="2"
     inkscape:pageopacity="0.0"
     inkscape:pagecheckerboard="0"
     inkscape:deskcolor="#d1d1d1"
     inkscape:document-units="mm"
     showgrid="false"
     inkscape:zoom="1.4592172"
     inkscape:cx="233.00164"
     inkscape:cy="379.99827"
     inkscape:window-width="1920"
     inkscape:window-height="997"
     inkscape:window-x="0"
     inkscape:window-y="27"
     inkscape:window-maximized="1"
     inkscape:current-layer="layer1" />
  <defs
     id="defs1940" />
  <g
     inkscape:label="Layer 1"
     inkscape:groupmode="layer"
     id="layer1">
    <path
       id="path2064"
       style="fill:#000000;stroke:#000000;stroke-width:1"
       d="m -61.979732,-109.42154 -25.439791,14.687991 v 29.375468 l 25.439791,14.687476 0.719336,-0.415479 v 29.192014 l 25.439786,14.68748 25.4398,-14.68748 v -28.872653 l 25.27287,-14.591358 v -29.375468 l -25.43979,-14.687991 -25.43979,14.687991 v 28.87214 l -0.55242,0.31936 v -29.1915 z m 0,7.94783 c 6.186182,3.570958 12.372375,7.142093 18.558557,10.713046 v 21.429699 c -6.186182,3.57095 -12.372375,7.141565 -18.558557,10.712525 -6.186182,-3.57096 -12.37238,-7.141575 -18.558557,-10.712525 v -21.429699 c 6.186177,-3.570953 12.372375,-7.142088 18.558557,-10.713046 z m 51.432002,0 c 6.18617,3.570958 12.37236,7.142093 18.55856,10.713046 v 21.429699 c -6.1862,3.57095 -12.37239,7.141569 -18.55856,10.712525 -6.18617,-3.570956 -12.37237,-7.141575 -18.55856,-10.712525 v -21.429699 c 6.18619,-3.570953 12.37239,-7.142088 18.55856,-10.713046 z m -25.27288,43.464018 c 6.1862,3.570956 12.37238,7.142086 18.55856,10.713041 v 21.429701 c -6.18618,3.57096 -12.37236,7.14156 -18.55856,10.71252 -6.18618,-3.57096 -12.372369,-7.14156 -18.558552,-10.71252 v -21.429701 c 6.186183,-3.570955 12.372372,-7.142085 18.558552,-10.713041 z" />
    <path
       id="path2064-0"
       style="fill:#000000;stroke:none;stroke-width:1"
       d="M 55.125317 40.9236 L 29.685527 55.611593 L 29.685527 84.987061 L 51.669714 97.679309 L 51.669714 123.24261 L 77.109505 137.93008 L 102.5493 123.24261 L 102.5493 97.773877 L 124.69678 84.987061 L 124.69678 55.611593 L 99.256991 40.9236 L 77.191154 53.663391 L 55.125317 40.9236 z M 55.125317 48.871436 C 61.311495 52.442388 67.497697 56.013523 73.683875 59.584477 L 73.683875 81.014176 C 67.497697 84.58513 61.311495 88.155737 55.125317 91.726701 C 48.939131 88.155737 42.752939 84.58513 36.56676 81.014176 L 36.56676 59.584477 C 42.752939 56.013523 48.939131 52.442388 55.125317 48.871436 z M 99.256991 48.871436 C 105.44316 52.442388 111.62936 56.013523 117.81555 59.584477 L 117.81555 81.014176 C 111.62936 84.58513 105.44316 88.155737 99.256991 91.726701 C 93.070832 88.155737 86.884611 84.58513 80.698433 81.014176 L 80.698433 59.584477 C 86.884611 56.013523 93.070832 52.442388 99.256991 48.871436 z M 77.109505 87.126982 C 83.295689 90.697938 89.481879 94.269078 95.668062 97.840023 L 95.668062 119.26972 C 89.481879 122.84068 83.295689 126.41128 77.109505 129.98225 C 70.923311 126.41128 64.737132 122.84068 58.550948 119.26972 L 58.550948 97.840023 C 64.737132 94.269078 70.923311 90.697938 77.109505 87.126982 z " />
  </g>
</svg>
