<?xml version="1.0" encoding="UTF-8" standalone="no"?>
<svg
   xmlns:dc="http://purl.org/dc/elements/1.1/"
   xmlns:cc="http://creativecommons.org/ns#"
   xmlns:rdf="http://www.w3.org/1999/02/22-rdf-syntax-ns#"
   xmlns:svg="http://www.w3.org/2000/svg"
   xmlns="http://www.w3.org/2000/svg"
   xmlns:xlink="http://www.w3.org/1999/xlink"
   xmlns:sodipodi="http://sodipodi.sourceforge.net/DTD/sodipodi-0.dtd"
   xmlns:inkscape="http://www.inkscape.org/namespaces/inkscape"
   width="210mm"
   height="297mm"
   viewBox="0 0 210 297"
   version="1.1"
   id="svg335"
   inkscape:version="1.0.2 (e86c870879, 2021-01-15)"
   sodipodi:docname="cardinal.svg">
  <defs
     id="defs329" />
  <sodipodi:namedview
     id="base"
     pagecolor="#ffffff"
     bordercolor="#666666"
     borderopacity="1.0"
     inkscape:pageopacity="0.0"
     inkscape:pageshadow="2"
     inkscape:zoom="0.7"
     inkscape:cx="670.61068"
     inkscape:cy="565.82252"
     inkscape:document-units="mm"
     inkscape:current-layer="layer1"
     inkscape:document-rotation="0"
     showgrid="false"
     inkscape:window-width="1920"
     inkscape:window-height="1002"
     inkscape:window-x="0"
     inkscape:window-y="27"
     inkscape:window-maximized="1" />
  <metadata
     id="metadata332">
    <rdf:RDF>
      <cc:Work
         rdf:about="">
        <dc:format>image/svg+xml</dc:format>
        <dc:type
           rdf:resource="http://purl.org/dc/dcmitype/StillImage" />
        <dc:title></dc:title>
      </cc:Work>
    </rdf:RDF>
  </metadata>
  <g
     inkscape:label="Layer 1"
     inkscape:groupmode="layer"
     id="layer1">
    <image
       width="375.45062"
       height="306.2139"
       preserveAspectRatio="none"
       xlink:href="data:image/png;base64,iVBORw0KGgoAAAANSUhEUgAAAOsAAADHCAYAAAD4ZKSYAAAABHNCSVQICAgIfAhkiAAAIABJREFU eJztnXtwG9d1xr/F7gKLNwgS4kMUX5JIylIt23IiK65cK03il2JbbW0nfklym2RaWYocN22sJJ1m 4jROmmk6re1pnbSV04zd1J7WTt1J1RkrlWU5jiVZ1MOSKVESxYcoEXzhtQssgN3+wdz1AgRJgASw C/L+ZjgSSXD3YrHfnnPPPedcRlVVFRQKxfRYjB4AhULJDypWCqVCoGKlUCoEKlYKpUKgYqVQKgQq VgqlQqBipVAqBCpWCqVCoGKlUCoEKlYKpULgjB5AJZIrQ1NVVTAMM+V3DMNMeU32MfQ/y/V6/c8o ixcq1jzRi0tVVSiKgmQyifHxcQwPD+Pq1asYGxtDJBKBJEmQJAmyLENRFCiKov09ER/DMLBarbBa rXA6nXA6nfD5fKitrUUgEEAgEIDVagXP81S0FAAAQxP5PyJbkMCkuBRFQTAYxNmzZ3Hp0iVcvnwZ 4XAYsiwDAHieB8/zsFgs2le2lZztvKqqIp1OI5lMIpVKIZ1Og+M4uN1uLFmyBE1NTejo6EBDQwM4 jtPGRgW8eKBi1UFEk0wm0d/fj1OnTuHcuXMYGRmBoigQBAE8z4Nl2SlitFgsGVbTYvkoHCDL8ozi zeX+6v9VFAWpVArRaBSJRAI33XQTtmzZAofDkXEeysJmUYo1+y2rqopYLIauri4cO3YMly9fBgAI ggCO47S5KBEhx3FgWRYcx2liIZaRuLzZQpvr+NLpNGKxGARBwHXXXYcNGzYgEAho56WWdfGw6MSq t1rxeBzvvfce3nvvPYyMjMBqtcJms2UIgbze5XKBZVnNVdULU1GUvEQz22v0Y1MUBeFwGM3Nzfj0 pz+NFStWgGVZKs5FzKIQq/4tKoqCs2fPYv/+/bh48SIEQYAgCAAy54C53Nx0Op0R7JkuukuOpf/5 TCLTR5IVRUEkEsHy5cuxZcsWBAKBKcekLE4WvFgVRQEASJKEQ4cO4eDBg5BlGS6Xa8p8b6Y5Jfl9 IYGjfNBb00gkgrq6Otx///2oq6vT5sEUCrAAxZq93hkKhbBv3z4cO3YMPM/DZrNpAjCDEFRVhSzL SKVS+IM/+ANce+21dD5KycmCEisJ7KiqCkmS8Prrr6OrqwsOhwM8z5tqqYOMMxQKYc2aNbjvvvtg t9tNMz6K+VgwYiVvIx6P43/+53/wzjvvwOl0ZiQVAOawVmR5KB6P45FHHkFnZyd1eSmzsiDEqqoq UqkUDh8+jDfeeAMsy2YEjcwCudSiKMLn8+ELX/gCPB4PXSul5EXFpxuqqoorV67gpz/9KcbGxuB0 Ok3l7hKIUMPhMK6//nr83u/9npaJRKHkQ0VaVjLfUxQFv/jFL/DWW2/B7Xabdh1SPz+9++678YlP fIK6vZSCqUixKoqC4eFh/NM//RMkSYLdbgdgLpeXoF873bp1Kzo7O7VxUveXUggVJVaSMfSrX/0K r7/+uumtKTA55mg0ih07dqCpqcngUVEqmYqaNKXTafz0pz9Fd3c3vF6vKeemetLpNCRJwu7du1FX V2f0cCgVTkVYVkVREAqF8OyzzyKZTMJms2m/M6NYSVK/JEl44oknEAgETDlOSmVhesuqqir6+vrw wgsvwGazaUI1681PgkmiKGLnzp1UqJSiYUqx6vNlz5w5g71792puL2BeoQLQor47d+5EQ0ODqcdK qSxMKVbC4cOH8eqrr8Ln8wEwv0iByVzk7du3Y9myZaYeL6XyMJ1YiRv59ttv47/+678yLKqZUVUV 4XAYW7ZsQWdnp9HDoSxATCVWvVDfeOMNzaKaHTJHXb9+PdavXw/A3F4ApTIxzao8EerRo0fxxhtv wOPxGD2kvCAlbg0NDbj77rtNv5xEqVxMZVm7u7vxs5/9DFVVVQDMb51IdpKqqnjsscfAsizNSqKU DNPcWVeuXMG//Mu/VIzrC3w0T/3Sl76UsfZLoZQCwy2rqqpIJBJ44YUX4Ha7K8KNJC57NBrF3Xff jfr6+lktanZrGPJ/CiVfDBcrALz66qtaU+tKgBSPNzc3Y8OGDVN+l+v18Xg8oym4zWYDy7JTXksF TJkOw9RBrNP58+dx/Phx+Hy+irhRiRiTySQeffRRrfu+oiiIx+Po7e1Fd3c3BgYGMDY2BlEUM7oi 6o9jsVhgt9vh9XrR0NCAlpYW/NZv/RZcLpdRb49iYgw1Zel0Gi+//DK8Xq+Rw8gbfQH5tm3bIAgC JiYmcPjwYRw/fhwjIyOwWCyw2WzgOA4cx+UV1Y7FYjh69CgkScJ1111X6rdBqVAMFev7778PSZLg crkqxqomk0m0t7dDVVX8/d//PS5fvqzlLGc/dGbrFUza0ciyjG3btmH16tUVcR0oxmCIWInbuG/f Pq0NSyWgqirGxsYAAD09PXA6nfB6vXPe5U0URdTX12P79u1wOBwVcx0oxmCYZb106RKi0egUa1TK ir35iIFEre12OziOg9Vq1Y5ZyHH1rvTNN9+Mu+66K2egiULJpuxiJTcraRVKfqZf0iD1oIlEAqIo QpIkJBIJpFIpKIqCdDqdcSz9zm0cx2nRVofDofUMLnQbxlyQrTbms7ykzyH++Mc/Tq0pJW8ME2tP T0/GUk0ikcDExARCoRDi8TjS6TQYhgHP89qubdmJB7n2pdH3PBofH0cqldKO43Q6UVVVVdDWGdm/ n49IiVAffPBBXHvttVSolIIou1gZhoEkSQiFQrDZbAgGg4hEIkin0xAEATabDU6nMy8rqHeZ9f+3 WCzaruL68yYSCVy8eBGKosBut8Pv98Pv94PjuLwSFebrRofDYXz+85/HmjVrKiL5g2IuDJmzvvPO O3jzzTenuKbEjXW5XPD7/XC73Tm3X5wLqqpqO4mT70dGRjA4OAi73Y7a2lp4vd4Mi1sMMRGLGolE 8NnPfhZr166lIqXMCUMsazweh8vlytgkikCWR/r6+iDLMux2O5YuXap1rs+e385nHGQOqigK+vv7 0dfXhyVLliAQCGhBn2IIS5Ik3HDDDfjEJz5BLSplzhi6zprrpiXzS57nAUw2S+vt7YWiKFi2bBkC gUDRBEuwWCxa1tDY2BiuXLmCQCCA+vr6Obc6JWNLpVJwu93YsmULFSllXhhSdVPITWuxWODxeOD1 enH58mV0dXVBFMWSjY2k/4XDYZw4cQJXr17VyuDmQiwWwxe/+EUtIk0FS5krpimRmw2GYeB2u+F0 OnHmzBn09fWV9HxEtMFgEKdOnUIkEsnYUjIfYrEY7rjjjooq+6OYl7KLVVGUeVkXlmXh9/sRCoVw 8uRJbc212BBBkrXac+fOobe3N6/zkeUjh8OBjRs3UotKKQqGWFZJkuZ9DKfTCZvNhuPHjyOZTBZh VNPDMAx8Ph8kScLJkycRjUZntbDRaBT3339/xZT9UcxP2cSqKAoSiQSOHTuGs2fPFsXS8DwPj8eD EydOaLWipcRms8HtduPs2bMYGhrK6RYTq7pkyRIsX7685GOiLB7KIlZVVREMBnHw4EHEYrGi1muS ANTJkyeRSqWKdtzpYBhGm8teuHAhp1sciUSwefPmokasKZSSiZVYnGQyia6uLhw/flxbWyW/LwYM w2h1ox988EHJxUHWSV0uF2RZxocffohUKpVhZZ1OJ5YvX07XVClFpSRiJTdtMBjEgQMHEIlESl5g Tiphzp8/X1LB6o9ts9nA8zw++OADJBIJAJM5zjfddJNpt6KkVC5FFyspqD5x4gS6uro0ayoIgrbp 8VyPO50IiSgEQUA0GsX4+Picz1MoHMfB4XDgzJkziMfjEEURGzZsoEKlFJ2ihipVVcXo6CiOHz+u BX9ItYuiKAUnM6iqCkEQcPPNN6OjowMWiwU9PT04dOgQIpFIRqUNwePx4MKFC/B4PGWLxHIcp63/ rl27Viv9o1CKybzuZr1I0uk0Tp8+jaGhIS0h3ul0guM4rR61EBRFwS233IKvfOUrWh8jkmb4+OOP 44UXXsBrr702pXCbYRhNsCtXriyLhVNVFSzLwuVy4cKFCxBFUeuAQS0spVjM2/SQViddXV3geR4+ nw8sy8LtdiMejyMWi0FRFAD5pxmqqopNmzZhz549GBsbw1/+5V/i3Llz2LRpE0RRxD333INdu3bB arXilVdemVKbyvM8xsfHIUkSHA7HfN9i3rAsi1QqhW9+85v47ne/C0EQ5l3wTqEQ5jRn1Tf7+uCD D3D06FE4nU7t5iQ7lUuSNKf+RC6XC1/+8pcxMjKC++67Dz/5yU/wxBNP4Atf+AJuvfVW3H///Th3 7hy++MUvoq6uLucxPB4Pzp8/P5e3Ny84jsPIyAj+7u/+Tiugp1CKwZwDTGNjY3jzzTfR398Pq9UK SZIQi8UgiiKi0Sii0ShEUUQsFsv4EkVxVpf4lltugcfjwQ9/+EP09/eDYRjEYjGtWfbIyAi+853v gGVZ3HHHHTmPwbIs0uk0otFo2QVjs9lw7NgxvPbaawXlElMoMzEnN1hVVfT09GBsbAyqqhYcfZ2Y mJhRQO3t7ZBlGW+//fbkIDkOR44cweuvv44DBw4AAI4cOYJQKITOzk4oipJz+wq3241Lly5h9erV BY2vGDidTvzsZz9DZ2cnrrnmGmphKfNmzpb1Yx/7GDZu3DinOeFs1sZqtUJRFC0jyWazoaOjA4cO HcLExAQAaL/neX7aY1ksFiQSiYKDW8XC7Xbj+9//vjYdoFDmw5zESqxEY2MjbrvtNrS2thZtQAzD oLe3F4IgYNWqVQAmS8127dqFkZER7XWtra2oqqpCb2/vjJtCOZ1ODA0NFW18hUCu0/PPP0/FSpk3 cxYrKftyOBzYsGEDbr75ZgiCMO8BqaqKQ4cOQZZlLeJLzqkN2mLBl7/8ZTAMg/3798/oYvI8rzXm NsIV5Xkehw8fRldX17yK2CmUomUwNTU14c4770RLS8u8RdHf349XX30V1113Hfbu3YtVq1Zpx2xp acFzzz2Hz3zmM9i/fz9OnDgx6/EsFosWoCo3JI/42WefNcwdpywMGLWIdzCZi/b392sbLeXi9OnT +OUvfzmjJWYYBn/yJ3+Ce+65B4qiYHh4GOl0GrW1teA4DgcOHMD3vve9vCptZFmGIAhobm42rBIm Ho/jzjvvxIMPPkiDTZQ5UVSxAtASICRJwvvvv5+z/Uo+YiXHWrNmDe688060t7eDZVmcP38e+/bt w5EjRwpKsgiHw7j++usNdUNjsRief/55+P1+w8ZAqVyKLlYCsbKXLl3C0aNHkUgkNKuWr1j1x0om k1BVVWs8NhvZecOjo6NYt26doVYtmUziYx/7GHbs2EFTESkFU7J6VnIzNjc344477kBjY+OcrRrD MLBarbDZbHkJFZi6PMTzPGKx2JzOXyx4nsdbb72F8fFxGmiiFExJO0UQwTocDvz2b/82brrpJi0l sZioqgpZlrXyuLGxsSlfZJMro7Hb7XjllVeoVaUUTMlryPRbY7S2tmLJkiVFW/dMpVKIRCJgWRZV VVVoaGiAIAgZpXG5Nq8yEp7nceDAATzyyCO0lI5SEGVtvccwDJxO57yTKBRFQTgchiAIWL16tdYq hsyJc0V8iZU3g/vJMAx++ctf4q677jLFA4RSGZStu6F+D9X5bJtItoZcuXIlVq1albENpH5/1+n+ 3gzY7Xb84he/oEkSlIKomI78wGR/I0VRcP311xe1Q2I5IQ+qYDBY8l0FKAuLihFrPB4HAFxzzTV5 R4TNCLGkdrsdb775JrWslLypiLs+lUpBlmV0dnYCMCbHt9hwHId3333X6GFQKoiKEGsoFMrID14o 1mh8fBxXr141ehiUCsH0YpUkCXV1dVr1zULCbrdT60rJG9OLVRRFLF261OhhlATS/oVGhSn5YGqx yrKM6urqBTFHnY6LFy+WZY8eSuVjarGKojht98KFgKqqEEURoVDI6KFQKgBTi1VRlHltuWF2GIYB z/M4e/as0UOhVACmFauqqgsyqJSNzWbDuXPnjB4GpQIwvVgX8nwVmOxvPDg4aPQwKBWAqcVqsVgW fJTUYrFgeHh4wb9PyvwxtVizN51aiJCWM1SslNkwrVhlWYbb7TZ6GGUhkUhAlmWjh0ExOaYUK9nT pqqqasHPWYGPcp8plJkoa/F5vsTjcVRXV4PjuAXtHupznWliBGU2DBVrrlYrZF+Y5uZmg0Y1P3J1 o5iuKF7f4TCVSmlN3iq5BJBSOsou1uk2pSINz6qrq7Vm3GZGL0r9/5PJJOLxOFKpFJLJpNaCVRAE OBwOWK1WLXCWTqeRTCaRSqXwb//2b9i4cSNWr169KJasKIVjiGXleR7RaFSzohzHwe/3o7W1tWIS IfQPHFmWIYoiUqkUOI7TxOvz+VBTUwOPx6P9fLpjjYyM4J//+Z8hyzLWrVuHe++9F4FAAECmBaYs XkrW5Hs6SNvQhx56CE6nc9pOhJUA2UCa53m4XC4oigJRFBEIBLRtPvQim0msekRRxNWrV9He3o5t 27YhEAhQsVKMEauqqnj44YcrLu+XWMx4PI5oNApBEOB0OsEwDMLhMNxuN5qbm2e0ovlCkvz7+vpw 44034qGHHtKi49TSLk4MESsAPPzww0XZIrKcpNNphEIh8DyvrQErioJIJIKWlhb4fD5NRMUQK/k3 EolgaGgIt9xyC+677z643W4ahFqEGGZZH3nkEQiCYJpevrnQj02SJIiiCJ/PB5Zloaqq5vZ2dHRo 76UUkGs2MTGBkZER3H777bjnnnsy+iVTS7vwoWLNg1AoBIZh4PF4tJ8pioJYLIZVq1aVLXpLOkqM jo4iFAphy5YtuO2228Bx3KJIzVzsGC5WM0IeIKqqYnx8HA6HY8pYSRO3UlrUXOjd46tXryIej+Nz n/scbrnlFrAsWzQ3nGI+DBPr1q1bTb9MMzo6CpfLleFuApNCbWpqgt/vN0wU5GNLp9MYGhqCxWLB 1q1bccMNN8BisdA57QLEsAwm/TYaZnODGYbByMgI3G53xgOF7BPrdrunCFWfIFGuMQKT9bCNjY1I JpP48Y9/DLfbje3bt+Oaa67JeB21tJWPYY9fMz75yQ09Pj4Op9OZ0/KLooimpqaMnxn5sCHBJY7j 0NzcDLfbjb/5m7/BN77xDVy4cEHzZMz2QKQUjmGKIRFVM0HWNlmWzTmflmUZNTU14Hk+428AGO7S kwcNz/NYvnw5OI7D008/jb/6q7/C4OBghmjNdt0p+WGYWM3mAjMMg3Q6DUmS4Ha7M8ZFxhqPx1Fb W5vxM2BSqEa/D32yBMMwsNlsWLFiBURRxDe+8Q388Ic/xMjICBRFAWCe607JH8PFahbIOqbP5wOQ 6aYTa2S326dYVTL3Nls9KhGt0+lEe3s7gsEgnnzySfzoRz9CJBKhYq1Ayi5W/T6tZkKSJNhsNm29 MtuyxuPxnNFfnueRTCZNmZigH5PL5UJ7ezvOnz+PHTt24KWXXkI0GkU6nTZ4lJR8MUQxZqrZJGuq sVgMLpcrp+BI8YHX652SmE/cZzOj38Ta5/Ohvb0d77//Pnbu3Imf//znSCQS1NJWAIYpRl9tYyQk Md/hcGjf54JlWS2IRARusViQTqdNaVVzQcbJsiyqq6vR1taG/fv3Y8eOHXjzzTeRTCZN/+BZzBgi VnLDmAVRFDWx5oJ0zs+GiLVSsVgsqK2tRXNzM/7jP/4Du3btwq9//WstCEUxF2UXq9lal8iyPOuy i6IoOV+jT+yoNPSxA5ZlsXTpUtTV1eHFF1/E7t270dXVhXQ6jXQ6TV1kk2CIL0osa64eTOVGkiQ4 nc4ZX6Oqak7LWglFCPlCEiuampogyzKeffZZ1NTUYPv27Vi5cqXhnxPFoGgwAM0NNvom0LdimY7p HioLzV0k1tZqtaKtrQ1WqxXPPPMMvv3tb2NgYACKomhflPJj2JyVWCojLVN2z6TpmO73ZvAMSgF5 TzabDcuXL0cymcSePXvwgx/8AMFg0ODRLV4MW7rJzhIygng8DkEQZh0HwzBIJpNTfq4oimnm3qWA zGntdjva29sxPj6Or371q/iHf/gHjI2NafW1Rn+OiwXD7rSWlhbDG1snk8m8cnqny1BSFMVUUe1S Qdxjl8uFjo4O9Pb24oknnsBPfvITmlhRRgwT64oVKwxP0VMUJW83NplMTslqIt8vht3u9HnHXq8X 7e3tOHnyJB5//HG8/vrrSCQS1NKWGMPmrE1NTQWJpVTjyBeSPJFNMpnMmaK4kCGi9fv9WLFiBd56 6y388R//Mfbt26c91BbLtSgnhllWn89n6Ly10PmmIAgYGxubMt50Og2WZRf03HU6yJw2EAigtbUV //3f/42dO3fi7bffztgOhAq3OBhafN7a2mrYB5lOp/MWGIlej46O5rz59IkVi+3mJIK1WCyor69H Q0MDXnrpJTz55JM4duwY0um05h5T5oeh5mDt2rWGzVsLsaz6JZpQKKT9nLiDiqIgmUxCEISKzmqa D/qOFcuWLUN1dTWef/55PPXUUzh37hy1skWg7A3TCKqqYnBwELt374bX6y3beYmQJEmCoigz5gRn o6oqEokEVq1alZG8r++/xPO8Zk0WM+SaJBIJDAwMoLGxEdu2bcvYdGwxTh3mg6FXa8mSJXC5XGU9 53yeTQzDIJVKYWxsbMrPybFlWaZLGTpsNhva2tqgqiq+/e1v4wc/+AGuXr1KrewcMFSsHMdh9erV ZbdCxK2dy3ldLhf6+vpyLuXQfWg+Qn8tLBYLBEHA8uXLEQqF8LWvfQ3PPfccQqGQlr5IhTs7hoqV YRhs2rQJoiiW/dwsy85JrCQ5gMzDKPlD2sysXLkSly9fxs6dO7F3717EYjF6LfPAsDkrQZZlPPro o7NWvhQbssmU3++f09/H43HY7Xa0tLRQazpHFEXB+Pg4xsbGcNddd+Guu+6CzWbTrudCzb2eK4bP 8DmOw9q1aw0JyMxnbikIAmKxGHp7e6lVmCMksaKtrQ1vv/02du3ahf/93//VphhUqJkYLlaGYfCZ z3zGEFd4vnMlh8MBSZLQ3d2dkblDxZsf+nLJJUuWoKmpCW+88QZ27dqFgwcPZiRWUEwgVgC49tpr DdmkymKxzLuYwGazwWKx4NSpUxgfH6c3VoHoI+kMw8DtdiMUCuFv//ZvsXv3bhw9enTRL4MRDJ+z ktPv3bsX+/fvL1tne9InmOf5eS0f6Xeci0ajsNlsWLZs2ZQ5OHXpPiLXLSeKIgYGBhCLxbTNosk1 bWpqwh/+4R+ivb1dW5tdjNfTcLECkx/e8PAwHn/88Yw9UEt9zmg0ikQigZqamqIdV1EUTbQNDQ3a +6FBqI/Qb1sZCoUwNDSERCIBp9M5peSQtHqNxWLo6OjAH/3RH2HZsmWLMqHCNGJVVRVPP/00Ll68 WLZ9cKLRKERRRHV1ddHrUsnDgCS6BwKBnDfiQma6zzCRSGB4eBhjY2Pacs5s14KINhqNYt26ddi6 dSvq6uq03y0GTCFWYPKD7enpwZ49e8pmXSVJ0nKTS5HySFxkch6Px6NlbS10S6u/rcg1GB8fx/j4 OFKp1JStSAohnU5DFEVs3LgRDz74IHw+36LIyTaVWNPpNPbs2YNgMFgW6yrLMhKJBCRJQiAQKPmH TTa+UlUVXq8XNTU1GVZFX9Bu5huPBIOm+3xUVUUqlUI4HMbExISW9CAIwpwFmotUKoVEIoFPfepT eOCBB7SH4EJd9jGVWFVVxenTp/Gtb30Lbre75Bc8lUpBkiStvUu58pRJTydJkgBMrtlWVVXB6/Vm dP3P9XdGop9r6sei/marzHA4jEgkgng8DkVRwHFcxv5BpYLkY999993YsmWL9kBYaPNa04gV+Gjd 86mnnkIwGCzLxY5GowAmo5E1NTUlP+d0FkmSJCQSCW1vWKfTqX3xPD+tePXC0Vu8fIWdy0rmGqOi KEilUpBlGbFYDPF4HPF4HIlEQuuWIQgCrFZrxhhms8LFgJwjkUgAAB544AHcdtttmmiNfsgVC1OJ ldDd3Y1vfvObcLvdJT9XPB5HKpVCMpmExWIpa7nedJApgSzL2g51HMeB53lYrVbYbDZYrVbwPK+t 85I523RzYb1gVFXN6JdE6nGTyaR2Lci5yc/0/aZ4ngfHcfOeJ5ZKxJIkwW634+GHH8bNN9+s7atU 6ZbWlGJNp9P43ve+h+7u7pJtYEVuFBKsYBgGoiiiqqqqqPOqYkKERba10Hdh0Isml2CzAz7ZEMGT 7TRYlp1V+MUQ28TERNFLCsmYk8kkli1bhu3bt+OGG24wTWP5uWJKsaqqimAwiJ07d5ZlHimKIhKJ BCKRCFiWRUNDw4LsWJhdLL9YiEQimmivueYa7UFTaZbWtGJVVRWvvvoqXnvtNdjt9pKcJ5VKQRRF TExMIBqNapakpqamqIkSlJkppqWbKUIdjUaxYsUKPPbYY2hpadG8h0rBlGIlJBIJ7N69G4lEoiiW jiwpiKKIWCyWsYkwCU4A0Jp/lWu9l1I+FEVBLBbD2rVr8eijj2Lp0qUAPnpgmFm8pharoig4f/48 nnrqKXg8noIinMDk3DeZTCKRSGhfZBuMbPGn0+mMpH6WZVFfX1+WIBel/JBYxfr167F9+3b4fD7T J6qYWqzApPD+9V//FS+99FJG4EM/39BHNUngJZVKTdmVPPutZgdIZFnO+J4KduFD8o4//elP43Of +5yWWEEwSry5lt9ML1Zg0kX96le/ipMnTwIoXaBE/U33Qv1FYlkW1dXVqK6uLuq5Fitms1zkHiLL VJs3b8aWLVsyOlYYMaZcbnlFiFVRFAwPD+NLX/oSwuFwSc+V7Q4D0PZ3WbJkSUb4vwIunakgZYlm qU/NlbwhSRLcbjfa29unvBaYm4Eo9G8VRcHWrVvR0dGRIVZDdj6fC4FAAE899RS+/vWvl7R7AMlJ TqVSGRd5YmICkiRpifhUqIVD2riY8dqpqopIJIKamhq0tbXBZrMZNo5H0dDvAAAMWUlEQVShoaHc a+EGjKdgyBx1/fr12Lp1a8k/bJKdQ85NSCQSGBwcxMDAQM5NqiiVQXYcIxqNQpIktLW1obOzM8MF LqYrnH3M6c5BxpJNRVhW/YV98MEHcfHiRfzf//1fSV1Rq9WKZDKpBakIiqIgEoloHQ38fr8hLWkq FTNYVRKMFEURLMti2bJleUWD55pIQc6XD6FQCL/zO7+TM4uuIsSqh2VZ/Omf/imuXr2KM2fOACjd /JEk0OtdYoKiKAiFQohEInC5XKiqqoLdbs9Z7kYxD6lUCtFoFE6nEy0tLRnVXbNZ0PnsFjjTnk76 tf5kMokHHnggd5pnJQSYsiFzyF27dmFgYKDk5yPrtTPlyZKu82Qry0pLZVtoZBcuxGIxKIoCn8+H +vr6jDlpIW7ufOQy3XlUdXLv35GRETz99NOoqqrKef9UrFhVVcXIyAgef/xxBIPBkpxH/4GTErHZ LhfDTG5O5Xa74fF4tPkPJX9IgUWhZJcKksohu92O2tpaeDyeDBEY+bnoo9Cjo6OwWq3Ys2fPjF1E KlKsBFVVMTAwgK985SsYGRkpyzlTqVROtzgXFosFdrsdHo9Hq0ulzA5JCc0XcuMriqLtDlhdXY1A IICqqiqtcsssD01ibGRZxuXLl/GpT30Kv//7vw+O42aeM1e6WFV1cuvIcgqWZErNFDTInrNyHAe7 3Q632w2Xy1Xy7gkLHXJ9E4kE4vE4LBYLnE4n/H4/vF5vxvU1k0iByYfR4OAgGhsb8dhjj6GhoQHA 7B0wK1qsBFWdbGX65JNPYnBwsGzBHbIemx0xngkSUbTb7VonCNJdgZIbcm1IQb4sy2AYBoIgwOPx wO/3z3kOWiqy7z9VnWwaNzw8jKVLl+KRRx5BW1tbQWNdMGIlQaevfe1rOHfuXNnPn0ql5pSZQzov OBwOOBwOCIIAjuPK1o7VrJCgHtmWRO+ZeDweWK3WKUEYM4iUoE9jHBsbQzwex7p167B582bU1dXN aRloQYiVQBa4n3nmGbzzzjuGnF8fiCp0GYe4QTzPQxAE7ctqtU5bezlTRwijKMSz0YsynU6DZVmt dY3L5YLT6YQgCKbuuZzdhSOVSmF8fByxWAytra3YtGkTbrjhhnkHGxeUWAFoVTcvvvgiXn75ZcNu 3nzmtbNBPliLxaL1YCL9l8j302VbGUX2kgkRI/E8yDIXGbsgCLDb7ZpXkWuuaYb3pSf7niLNx8fG xmCz2bBy5UrcdNNNWLt2bYZ7Pt/lvAUnVoKiKDh48CD++q//GrFYzLBx6Ev3iLs+15tvSsnUb1wp ImbyRUoJyRdpbJarqVqusejFRshusKb/ApDRs4llWW0sPM/DbrdnNHnLuYbIGN/vNx8pkDXRaDSK UCiEcDiMcDiMpUuX4vbbb8e6detQU1MzZa09l5dV6Htd0GIFgIGBATz99NPo6ekx3EXUC1dRlJLe mLmETZhprVG//mez2dDU1ITe3t4ZPQSWZeF0OuF2u7V/SUNvIuLpyr7MQK77glRfxeNxxGIxxGIx RCIRiKIIWZYzrke2ADmOg8fjQSAQQGNjIxobG9Hc3IympiZUV1fDbrdnPETzZcGKVW8dZFnGiy++ iH//93/PsG7leOvTnUdvocj/zXATEze1ra0Nf/EXf4G2tjZcuHABP//5z3HgwAFEIhEAM89LyTGI m2uz2WC327X/k3k4cYXJ8WZD/5pCPrvssRL3nPRBJrsy6P+Nx+NTmhEUA6vVCo/Hg9bWVjzzzDMF ucYLVqzZpNNpnD59Gt///vfLkqJYKNnupf5jKaeIeZ7HQw89hG3btmnzYTIWWZbx7rvvYt++fTh2 7Bji8ficH3pE0MRl5nleE2+2G0+s0HRzc32Wmf6LLKvp580kmKV34Y1gw4YN+M53vkMtay6IRY3H 43jppZfwyiuvzJhcbQayxVtqAa9ZswZ//ud/rpVnZafv6c8fiUTw61//Gvv378fJkyfLHheYTzG4 0dhsNjz33HNYvnx5QX+3aMRKIBZscHAQzz33HI4cOWKazgX5oBdu9peeQsTs9/uxY8cO/O7v/m5G dHk2yLUURREnT57EoUOHcPjwYYyOjhaUKLKY4Hkef/Znf4ZPfvKTBdfKLkqx6t/y+++/j3/8x39E T0+PgaOamXxczew52XTf6+fsdrsd999/Px566KGM8j5yznzIdZ6+vj4cOXIER44cwenTpxGJRBat cPXBtaqqKnz961/H2rVraVLEXCDBhnfffRd79+7F+fPnF3wtqsPhwObNm/H5z39+SiVKsSDCTafT uHTpEo4cOYITJ06gp6dn0Vleu92OzZs349FHH9UiwXOBilVnddLpNI4ePYqXX34Zp06dqij3OBfZ Dx2/34/PfvazuPfee7U+zCTQU2z0llw/v0ylUhgdHUV3dzdOnTqF7u5u9Pf3IxqNFn3PGyMhjeJv v/123HnnnfD5fABmT9afiUUv1mzIPOzChQv4z//8Txw4cEAr16pEi8swDDo6OnDvvfdi48aNU9xd o9Bfx2QyiWAwiN7eXvT09OD8+fPo6+vD8PCwtodtJcDzPJqbm/Hxj38cGzduxPLly+fVXSIbKtYc 6K1tPB7HgQMHsG/fPpw6dUpz38x82VRVRW1tLW699VbcfvvtaGpqykhIMINY9WRbYf1STDAYxMDA APr6+jA0NITBwUEEg0GMjo4iGo1qOyyUup0OOS45tt1uR01NDZqamtDe3o7Vq1ejs7MTDocj430V sxSSinUGsoMnoVAIBw8exMGDB3HmzBltMysjyL4pLRYLGhsbsX79emzatAkrVqzQipmNTuObC7Pd lmQNNRwOIxgMYmxsDMFgEOPj49oO7CTjSL/pc/ZWmcBHaZtkzddqtUIQBDgcDni9Xvh8Pvh8PtTW 1qK+vh719fVaUbt+7bfU15mKtQD0yySSJKG7uxvvvfceTpw4gUuXLiEej5fN4nIch5qaGqxatQrr 1q3D9ddfrzUhL9U81ExkX2e9Vc5+kBEBzZR0os9rnsk6G5kyScU6T4h4ZVlGX18fzp49i3PnzqGv rw+XLl1CJBLJ2eF/pptB7xZaLBa4XC7U1taisbERbW1taG9vR1tbG6qrq02bb2tGKtHD0EPFWkT0 IhsYGMCHH34Il8sFURQ1tywWi2luWjKZ1NwtUrvp9XpRVVWlfQUCgZxdECr5pqPMDSrWacier84W wNC7X8PDwzh+/Dh8Pl/GslAsFoMgCFiyZAkCgQDcbnfOJllUiJRcVFyT73JCNt6dmJjAxMQE4vG4 1tnQarXCbrejqqoKPp9P66OUTCbR1dWlrasBk3m0Xq8X69evL6ipNIWih4pVh365pqenB319fQiF QrOWr5FtIVtaWhCJROB0OjUrGw6H0d7enrF8QqHMBeoG/waSXfPhhx/i9OnTGZ0dgKmheZ7ntfYq FosFiqIgmUyC53nU1NQAmBR9bW2ttnUfFStlPlDLquPgwYMYGhrK+BnDTLa8lGVZ67TvdDqnzDWz lw6AycycK1euAACampq0BfNKXfukGAsV62+QZRlXr17Vvuc4Dq2trfD7/ejr64Oqqhnu7XRBIX0e rMfjgaqqCAaD6OvrQ1VVFdasWQNBEKhQKQVD3eDfoKoqfvWrX+HSpUuoq6vDjTfeiKGhIVy8eBEe jwcsy2qJ/URopC0ISUC3WCyaa5yrcJt0wVu9ejWWLl1KBUspCCpWHWTeybIsTp06hdHR0QxrCgCi KCKVSsHtdms7xlmtVgCT4g2Hw1rPWEVR4HQ6tfxQIs6JiQmsWbMG9fX1dC5LyRsqVh0koPTBBx9g ZGQEdrsdwKTIotEoWJbFihUrUFtbqzX6mm4NluSt9vf3Y3h4WGtcTV4Ti8Vw6623FtzhjrJ4oXNW HSTz6MqVK9p6qKIomJiYQHt7O1paWmbdsoF8z3Ec/H4/fD4f0uk0enp60N/fD6/Xq52L/EvFSskH KlYdqqqiu7s7Q6jhcBjr16+H1+udk6hIcnhHRwccDgc+/PBDrcZ0oSfbU4oLFWsWeosXDodx4403 wufzzb26XzcnbWpqwtKlSwFgyjyWQpkN+mjXYbFYsGLFCi29sLOzE36/v2iCIt3aSbSYCpVSCDTA pEPfoYAUJNM5JcUsULFSKBUCdYMplAqBipVCqRCoWCmUCoGKlUKpEKhYKZQKgYqVQqkQqFgplAqB ipVCqRCoWCmUCoGKlUKpEP4fuZsw/Y0nPCQAAAAASUVORK5CYII= "
       id="image85"
       x="2.2022927"
       y="0.21196564"
       style="opacity:0.36;fill:#f2f2f2" />
    <path
       id="path105"
       style="fill:none;stroke:#000000;stroke-width:1;stroke-miterlimit:4;stroke-dasharray:none;stroke-opacity:1"
       d="M 141.72674,21.90335 C 128.28087,22.037191 114.82971,24.097319 102.0641,27.99161 89.771501,32.268421 78.467333,39.183347 68.299862,46.742332 54.518874,61.018499 48.565925,72.781886 46.444082,87.835963 l -10.825859,7.154162 -12.372381,8.174325 12.452802,8.01953 10.12066,6.51653 C 43.645677,179.82524 69.294736,256.18653 131.532,269.45218 l -3.93446,5.17123 -0.34346,-0.13695 c 0,0 -2.64654,-0.72001 -3.99935,-0.93788 -1.43461,-0.23136 -2.8912,-0.30917 -4.34272,-0.38906 -2.42936,-0.13383 -4.87776,-0.38179 -7.29973,-0.15147 -2.76396,0.26249 -5.58973,0.65361 -8.13789,1.73695 -1.08977,0.46376 -2.21716,1.05741 -2.93536,1.98596 -0.897225,1.15969 -1.658861,2.68831 -1.447499,4.12968 0.106731,0.72521 0.598148,1.53258 1.295949,1.79454 1.26625,0.47621 2.66144,-0.53015 3.96849,-0.88393 1.73496,-0.46998 4.26948,-3.1969 5.1314,-1.64576 0.52523,0.94514 -1.74034,1.31377 -2.54868,2.04052 -1.72861,1.55425 -3.47042,3.12552 -4.89954,4.94961 -0.6214,0.79265 -1.8568,1.61423 -1.57432,2.57504 0.34875,1.18594 2.11773,1.54273 3.36835,1.67004 1.20781,0.12346 2.50007,-0.27494 3.51692,-0.92648 0.86763,-0.55609 1.24121,-1.63435 1.94547,-2.38061 1.12897,-1.19611 2.22804,-2.47751 3.63749,-3.34017 2.33406,-1.42871 4.98409,-2.54743 7.71423,-2.87569 2.34672,-0.2822 4.72516,0.3683 7.04294,0.82584 4.11845,0.80923 7.99987,1.96384 11.1784,5.08013 2.12438,0.50422 4.62244,0.76878 6.08728,-1.42104 0.53051,-1.87877 -0.80846,-4.0384 -2.18991,-5.43848 -2.19624,-2.22509 -8.69164,-3.68939 -8.69164,-3.68939 0,0 2.00284,-2.58966 3.36844,-3.44952 2.19824,-1.38431 7.36156,-2.51558 7.41101,-2.52648 26.09514,1.24923 52.32962,-13.2556 72.51111,-23.56921 39.71458,14.78344 112.07054,22.84783 143.60332,-2.39326 l -29.08123,-0.69823 c 0,0 26.63041,-3.58325 36.15513,-11.83652 3.02562,-2.62172 8.40611,-10.83599 5.22735,-10.71906 L 308.92697,221.14349 150.52038,142.3571 c 0.47556,-20.30725 -6.41256,-32.57527 -18.49368,-48.402586 2.73161,-19.902957 26.05318,-30.50529 26.05318,-30.50529 0,0 -15.5767,-12.231293 -34.98906,3.765333 0.51466,-17.912025 10.31859,-31.969913 42.68161,-43.449955 -7.91374,-1.327979 -15.97829,-1.941551 -24.04579,-1.861457 z"
       sodipodi:nodetypes="cccccccccccccccccccscccccccsccccccccccsccccccccc" />
    <path
       id="path206"
       style="fill:none;stroke:#000000;stroke-width:0.669619;stroke-opacity:1"
       d="m 80.21999,100.7191 a 8.8292686,8.6678733 0 0 1 -8.829223,8.66782 8.8292686,8.6678733 0 0 1 -8.829327,-8.66782 8.8292686,8.6678733 0 0 1 8.829327,-8.667946 8.8292686,8.6678733 0 0 1 8.829223,8.667946 z" />
    <path
       id="path1820"
       style="fill:none;stroke:#000000;stroke-width:1;stroke-linecap:butt;stroke-linejoin:miter;stroke-miterlimit:4;stroke-dasharray:none;stroke-opacity:1"
       d="m 150.52038,142.3571 c -16.40083,1.64651 -28.70185,10.16915 -31.63145,26.38895 -5.45969,30.12503 27.83116,38.53447 46.5091,41.9974 21.95878,3.48529 44.5997,2.37803 66.26851,-2.46721 9.55461,-2.27963 19.05751,-5.50754 27.26238,-11.02753"
       sodipodi:nodetypes="ccccc" />
    <path
       style="fill:none;stroke:#000000;stroke-width:1;stroke-linecap:butt;stroke-linejoin:miter;stroke-opacity:1;stroke-miterlimit:4;stroke-dasharray:none"
       d="M 46.444082,87.835963 C 45.819304,117.70051 45.819304,117.70051 45.819304,117.70051"
       id="path1822" />
    <path
       id="path1858"
       style="fill:none;stroke:#000000;stroke-width:1;stroke-linecap:butt;stroke-linejoin:miter;stroke-opacity:1;stroke-miterlimit:4;stroke-dasharray:none"
       d="m 51.791621,73.78978 c 7.552035,0.224453 15.486844,0.129877 22.488361,3.341224 9.138018,4.756559 15.609811,13.684218 18.584773,23.423426 1.593084,4.59491 2.821425,9.30579 3.957893,14.03125 -6.379497,-0.9233 -13.396598,-1.56108 -19.142462,1.9979 -5.638257,3.09502 -10.704519,8.0308 -12.546067,14.32509 -0.491529,3.41026 0.676631,7.04445 -1.51396,10.22406 -3.321402,5.63409 -9.027972,5.92387 -14.818282,6.66795 -0.568517,0.0515 -1.137714,0.0956 -1.707442,0.13132"
       sodipodi:nodetypes="ccccccccc" />
    <path
       id="path1820-6"
       style="fill:none;stroke:#000000;stroke-width:1;stroke-linecap:butt;stroke-linejoin:miter;stroke-miterlimit:4;stroke-dasharray:none;stroke-opacity:1"
       d="m 150.52038,142.3571 c -48.46074,8.63137 -46.25278,32.3908 -47.99513,48.62088 5.35462,30.80513 27.89225,43.05565 46.57019,46.51858 53.7905,10.56011 117.27617,13.49259 172.69122,-16.19573"
       sodipodi:nodetypes="cccc" />
    <path
       id="path1882"
       style="fill:none;stroke:#000000;stroke-width:1;stroke-linecap:butt;stroke-linejoin:miter;stroke-miterlimit:4;stroke-dasharray:none;stroke-opacity:1"
       d="m 51.791621,73.78978 c 0,0 17.900841,-6.07605 27.22718,-6.777387 7.431676,-0.558859 15.04982,0.207992 22.259599,2.095111 7.10203,1.858917 13.65469,5.477349 20.12625,8.943383 4.58575,2.456032 8.78575,5.572715 13.17863,8.359073"
       sodipodi:nodetypes="caaac" />
    <path
       style="fill:none;stroke:#000000;stroke-width:1;stroke-linecap:butt;stroke-linejoin:miter;stroke-opacity:1;stroke-miterlimit:4;stroke-dasharray:none"
       d="m 112.85584,215.91592 c 0,0 -11.72194,5.24833 -17.990069,6.26235 -8.141932,1.31715 -24.740854,-0.35165 -24.740854,-0.35165"
       id="path1885"
       sodipodi:nodetypes="cac" />
    <path
       style="fill:none;stroke:#000000;stroke-width:1;stroke-linecap:butt;stroke-linejoin:miter;stroke-miterlimit:4;stroke-dasharray:none;stroke-opacity:1"
       d="m 331.88701,244.55811 c -37.9157,11.117 -81.50836,5.38607 -114.52209,3.09149"
       id="path1887"
       sodipodi:nodetypes="cc" />
    <path
       id="path206-7"
       style="fill:none;stroke:#000000;stroke-width:0.410094;stroke-opacity:1"
       d="m 75.457487,100.18993 a 5.4072941,5.3084511 0 0 1 -5.407266,5.30842 5.4072941,5.3084511 0 0 1 -5.40733,-5.30842 5.4072941,5.3084511 0 0 1 5.40733,-5.308487 5.4072941,5.3084511 0 0 1 5.407266,5.308487 z" />
  </g>
</svg>
