<?xml version="1.0" encoding="UTF-8" standalone="no"?>
<svg
   xmlns:dc="http://purl.org/dc/elements/1.1/"
   xmlns:cc="http://creativecommons.org/ns#"
   xmlns:rdf="http://www.w3.org/1999/02/22-rdf-syntax-ns#"
   xmlns:svg="http://www.w3.org/2000/svg"
   xmlns="http://www.w3.org/2000/svg"
   xmlns:sodipodi="http://sodipodi.sourceforge.net/DTD/sodipodi-0.dtd"
   xmlns:inkscape="http://www.inkscape.org/namespaces/inkscape"
   width="210mm"
   height="297mm"
   viewBox="0 0 210 297"
   version="1.1"
   id="svg1255"
   inkscape:version="1.0.2 (e86c870879, 2021-01-15)"
   sodipodi:docname="cheta.svg">
  <defs
     id="defs1249" />
  <sodipodi:namedview
     id="base"
     pagecolor="#ffffff"
     bordercolor="#666666"
     borderopacity="1.0"
     inkscape:pageopacity="0.0"
     inkscape:pageshadow="2"
     inkscape:zoom="0.35"
     inkscape:cx="400"
     inkscape:cy="560"
     inkscape:document-units="mm"
     inkscape:current-layer="layer1"
     inkscape:document-rotation="0"
     showgrid="false"
     inkscape:window-width="1513"
     inkscape:window-height="1016"
     inkscape:window-x="397"
     inkscape:window-y="32"
     inkscape:window-maximized="0" />
  <metadata
     id="metadata1252">
    <rdf:RDF>
      <cc:Work
         rdf:about="">
        <dc:format>image/svg+xml</dc:format>
        <dc:type
           rdf:resource="http://purl.org/dc/dcmitype/StillImage" />
        <dc:title></dc:title>
      </cc:Work>
    </rdf:RDF>
  </metadata>
  <g
     inkscape:label="Layer 1"
     inkscape:groupmode="layer"
     id="layer1">
    <path
       style="fill:#00ff00;stroke-width:0.706142"
       d="m -73.836144,36.834836 c -1.19619,-0.863119 -1.588821,-1.851195 -1.588821,-3.998449 0,-5.425022 4.229628,-8.946701 12.559244,-10.457158 5.589763,-1.013617 14.453133,-4.702795 33.093597,-13.7745332 9.191267,-4.473084 15.234124,-7.82646205 15.711788,-8.71899205 1.006481,-1.88063195 0.299828,-3.69243295 -3.743719,-9.59862995 -3.237773,-4.7292698 -5.083159,-9.5953208 -4.356763,-11.4882828 0.218742,-0.569968 0.0699,-1.648866 -0.330771,-2.397463 -0.584722,-1.092563 -1.500161,-1.361133 -4.639433,-1.361133 -5.378037,0 -12.891304,2.668675 -20.84286,7.40331 -7.462404,4.443379 -8.433278,4.507832 -12.71014,0.843715 -3.686987,-3.158762 -3.874513,-4.183749 -1.665861,-9.105286 1.583219,-3.527897 1.833806,-4.854201 1.455683,-7.704627 -0.509595,-3.841491 -0.04283,-5.091972 3.569235,-9.562627 1.307991,-1.618867 2.382493,-3.684347 2.387796,-4.589927 0.02973,-5.070701 2.035735,-6.069533 6.683019,-3.32757 l 2.536523,1.496579 7.566383,-2.173516 c 4.161507,-1.195448 8.83744,-2.375337 10.390957,-2.621996 1.553515,-0.246605 6.002218,-1.664052 9.886005,-3.149795 9.2562625,-3.540975 16.7562475,-5.049617 25.4211615,-5.113564 7.6350995,-0.05631 6.2389615,-0.439913 25.8472715,7.101165 13.808562,5.310581 14.965869,5.428679 53.240789,5.432576 36.1831,0.0027 36.75133,-0.0403 48.01775,-3.720644 4.82353,-1.575685 6.93915,-1.851195 14.47594,-1.885196 8.48088,-0.03816 9.26955,0.08941 20.12508,3.256711 15.19059,4.432223 21.0978,5.591588 30.78026,6.041028 9.44731,0.438526 15.60755,-0.429504 22.43527,-3.161298 6.87478,-2.750636 10.50482,-6.692771 13.11403,-14.241508 1.13052,-3.270723 2.63652,-6.527808 3.34668,-7.237972 1.8668,-1.866807 5.62892,-1.673393 7.56645,0.389017 5.38464,5.731705 -3.5813,20.921309 -16.07051,27.225864 -8.20121,4.139953 -13.74299,5.19 -27.63037,5.235398 -12.6731,0.04137 -20.59649,-0.83747 -34.08015,-3.78032 -6.86027,-1.497273 -11.4929,-1.8023 -12.11384,-0.797624 -0.2079,0.336413 0.57978,2.380008 1.7504,4.541327 2.68557,4.958367 4.16348,11.861554 4.18806,19.562071 0.0155,4.857296 0.34842,6.709425 1.74532,9.7098958 2.02745,4.354772 2.76132,4.722731 11.33457,5.683131 5.80602,0.650381 7.32823,1.18125 17.30052,6.033449 14.01353,6.818529 27.35026,11.3592962 31.64992,10.7758242 4.31764,-0.585928 8.97373,0.777794 11.81968,3.461868 2.05445,1.937586 2.41884,2.757496 2.41884,5.442611 0,4.371052 -1.61687,5.707898 -7.34452,6.072628 -4.05404,0.258082 -5.17081,-0.02402 -12.84714,-3.240778 -9.91263,-4.154471 -17.35256,-6.635256 -26.00886,-8.672472 -5.80599,-1.366391 -7.53341,-1.44563 -21.89044,-1.004116 -17.31196,0.532416 -23.34016,-0.188424 -28.91911,-3.457865 -1.61632,-0.947242 -6.58642,-5.1239722 -11.04465,-9.2816472 -14.14307,-13.1896188 -21.92709,-17.6848278 -29.67827,-17.1389338 -2.96995,0.209241 -4.679736,0.81241 -7.061431,2.491488 C 82.807946,-3.8290412 74.432308,0.27490775 63.78008,3.0849808 57.998043,4.6103038 55.387086,4.8858938 46.384768,4.9211228 34.268786,4.9686288 29.232375,4.0951018 16.120718,-0.32748625 11.515231,-1.8809132 7.6566085,-3.0538892 7.5459905,-2.9341092 c -0.110625,0.119833 -0.540975,3.39546595 -0.95635,7.279232 -0.592139,5.536476 -1.051081,7.3026132 -2.125161,8.1781422 -0.753454,0.614164 -4.65796898,1.994193 -8.676693,3.066712 -4.018726,1.07252 -17.3163575,5.300706 -29.5502945,9.396009 -17.355575,5.809769 -23.010845,8.003195 -25.735412,9.981642 -3.013084,2.187955 -4.126595,2.568405 -8.120648,2.77463 -3.441195,0.177748 -5.036382,-0.05525 -6.217576,-0.907422 z"
       id="path1850" />
  </g>
</svg>
