<?xml version="1.0" encoding="UTF-8" standalone="no"?>
<svg
   width="210mm"
   height="297mm"
   viewBox="0 0 210 297"
   version="1.1"
   id="svg404"
   inkscape:version="1.2.2 (b0a8486541, 2022-12-01)"
   sodipodi:docname="turtle2.svg"
   xml:space="preserve"
   xmlns:inkscape="http://www.inkscape.org/namespaces/inkscape"
   xmlns:sodipodi="http://sodipodi.sourceforge.net/DTD/sodipodi-0.dtd"
   xmlns="http://www.w3.org/2000/svg"
   xmlns:svg="http://www.w3.org/2000/svg"
   xmlns:rdf="http://www.w3.org/1999/02/22-rdf-syntax-ns#"
   xmlns:cc="http://creativecommons.org/ns#"
   xmlns:dc="http://purl.org/dc/elements/1.1/"><metadata
     id="metadata2867"><rdf:RDF><cc:Work
         rdf:about=""><dc:format>image/svg+xml</dc:format><dc:type
           rdf:resource="http://purl.org/dc/dcmitype/StillImage" /></cc:Work></rdf:RDF></metadata><sodipodi:namedview
     id="namedview406"
     pagecolor="#ffffff"
     bordercolor="#666666"
     borderopacity="1.0"
     inkscape:showpageshadow="2"
     inkscape:pageopacity="0.0"
     inkscape:pagecheckerboard="0"
     inkscape:deskcolor="#d1d1d1"
     inkscape:document-units="mm"
     showgrid="false"
     inkscape:zoom="1.0318224"
     inkscape:cx="305.2851"
     inkscape:cy="202.06966"
     inkscape:window-width="1920"
     inkscape:window-height="997"
     inkscape:window-x="0"
     inkscape:window-y="27"
     inkscape:window-maximized="1"
     inkscape:current-layer="layer1"
     inkscape:document-rotation="0" /><defs
     id="defs401" /><g
     inkscape:label="Layer 1"
     inkscape:groupmode="layer"
     id="layer1"><path
       id="path1507"
       style="opacity:0.58;fill:#00ff00;stroke:#000000;stroke-width:1.03583;stroke-linejoin:bevel"
       d="M 16.035023,-5.8102563 C 3.4038982,-4.3792793 1.2371072,4.5177407 0.90416418,12.403619 1.5992812,14.517625 4.8634332,14.42467 6.6666032,14.468609 13.140418,30.95897 22.724085,40.40391 36.07101,50.87104 c 0,0 -5.012987,7.17563 -5.672522,11.35486 -0.0854,0.54104 -0.0259,1.14922 0.245979,1.62471 0.26108,0.45656 0.698802,1.13079 1.224732,1.13533 h 16.303397 c 1.144793,-1.40756 1.130983,-1.33473 1.500683,-2.11667 1.28296,-2.71355 2.37195,-8.68681 2.37195,-8.68681 17.10363,3.3679 31.96154,3.23761 49.066771,1.15187 l 3.15381,6.5164 c 0,0 0.48695,3.13521 1.67122,3.13521 h 17.45216 c 0,0 0.55298,-1.8912 0.36691,-2.82102 -0.73054,-3.65102 -5.59139,-9.67021 -5.59139,-9.67021 0,0 6.03797,0.45524 9.04957,0.26252 2.10239,-0.13454 4.8379,0.58305 6.24252,-0.98702 0.5783,-0.64641 0.52615,-1.83357 0.11885,-2.59933 -1.19314,-2.24319 -4.72605,-2.15675 -6.50864,-3.9672 -1.20005,-1.21878 -2.60243,-4.42247 -2.60243,-4.42247 C 112.5439,19.454169 93.778039,-1.2828803 70.746409,-1.5324813 50.291759,-1.5560713 44.185344,10.531254 32.599904,19.347898 28.071754,15.355288 29.984803,12.380587 28.445118,7.0675107 26.313143,-0.28673628 23.852993,-5.8026833 16.035023,-5.8102563 Z m -2.230871,7.41195 a 2.2733703,2.2733702 54.121697 0 1 2.273763,2.273764 2.2733703,2.2733702 54.121697 0 1 -2.273763,2.273246 2.2733703,2.2733702 54.121697 0 1 -2.273247,-2.273246 2.2733703,2.2733702 54.121697 0 1 2.273247,-2.273764 z m 61.092397,1.882056 c 0,0 1.49715,6.8717143 1.28416,10.3373543 -0.21891,3.561907 -2.6107,10.382316 -2.6107,10.382316 0,0 -1.40652,-5.364758 -1.34617,-8.101835 0.0948,-4.298217 2.67271,-12.6178353 2.67271,-12.6178353 z M 47.589686,10.125722 c 0,0 5.211323,6.978541 6.737573,10.997778 0.9719,2.55942 1.43971,8.08633 1.43971,8.08633 0,0 -4.53434,-5.62885 -5.93142,-8.912636 -1.359338,-3.195038 -2.245863,-10.171472 -2.245863,-10.171472 z m 51.007743,3.538802 c 0,0 -0.88604,6.976957 -2.24534,10.171986 -1.39709,3.28379 -5.93194,8.91212 -5.93194,8.91212 0,0 0.4678,-5.52639 1.4397,-8.08581 1.52625,-4.01923 6.73758,-10.998296 6.73758,-10.998296 z M 29.74168,25.52892 c 0,0 15.390942,14.04715 24.749909,18.20715 6.747,2.99901 14.3451,3.79494 21.69945,4.45038 10.73173,0.95644 21.54154,-0.53561 32.312761,-0.7922 4.42513,-0.10542 13.27619,-0.30696 13.27619,-0.30696 0,0 -23.414581,3.7173 -35.230921,4.06745 -7.43114,0.22021 -14.99773,0.30723 -22.26893,-1.24178 -6.19524,-1.3198 -12.48271,-3.25929 -17.757054,-6.76703 C 39.770022,38.65476 29.74168,25.52892 29.74168,25.52892 Z m 84.95399,9.77046 c 0.73143,2e-4 1.18287,0.01 1.18287,0.01 0,0 -4.66161,3.00547 -7.28172,3.79925 -4.1146,1.24652 -12.823511,1.38286 -12.823511,1.38286 0,0 6.065241,-3.5591 9.425261,-4.43435 2.59004,-0.67468 7.3028,-0.75819 9.4971,-0.75758 z" /></g></svg>
