<?xml version="1.0" encoding="UTF-8" standalone="no"?>
<!-- Created with Inkscape (http://www.inkscape.org/) -->

<svg
   width="210mm"
   height="297mm"
   viewBox="0 0 210 297"
   version="1.1"
   id="svg21597"
   inkscape:version="1.2.2 (b0a8486541, 2022-12-01)"
   sodipodi:docname="daila3.svg"
   xmlns:inkscape="http://www.inkscape.org/namespaces/inkscape"
   xmlns:sodipodi="http://sodipodi.sourceforge.net/DTD/sodipodi-0.dtd"
   xmlns="http://www.w3.org/2000/svg"
   xmlns:svg="http://www.w3.org/2000/svg">
  <sodipodi:namedview
     id="namedview21599"
     pagecolor="#ffffff"
     bordercolor="#666666"
     borderopacity="1.0"
     inkscape:showpageshadow="2"
     inkscape:pageopacity="0.0"
     inkscape:pagecheckerboard="0"
     inkscape:deskcolor="#d1d1d1"
     inkscape:document-units="mm"
     showgrid="false"
     inkscape:zoom="0.18819269"
     inkscape:cx="1014.9172"
     inkscape:cy="1713.6691"
     inkscape:window-width="1920"
     inkscape:window-height="997"
     inkscape:window-x="0"
     inkscape:window-y="27"
     inkscape:window-maximized="1"
     inkscape:current-layer="layer1" />
  <defs
     id="defs21594" />
  <g
     inkscape:label="Layer 1"
     inkscape:groupmode="layer"
     id="layer1">
    <path
       id="path21475"
       style="fill:#5f5fd3;stroke-width:1.08221;stroke-linejoin:bevel"
       d="M 81.176248,-16.734268 C 70.088788,-8.995695 61.257288,4.07715 56.228418,20.194744 43.816528,8.746504 29.632188,1.835236 16.159548,0.67138798 10.431698,12.920255 9.3247785,28.658701 13.032608,45.13069 c -16.4653795,-3.707028 -32.19834,-2.603246 -44.445868,3.118156 1.164117,13.472154 8.075158,27.655904 19.522838,40.067324 -16.11878,5.02165 -29.197024,13.84586 -36.94503,24.92768 7.746926,11.08857 20.82993,19.9184 36.9564,24.94214 -11.44898,12.39986 -18.36943,26.57329 -19.550744,40.04097 12.245644,5.72647 27.9792245,6.83448 44.446904,3.13004 -3.7033195,16.4662 -2.59494,32.1982 3.13107,44.44277 13.46866,-1.16375 27.64869,-8.07148 40.05802,-19.51406 5.0252,16.11773 13.85272,29.19296 24.93698,36.93625 11.07967,-7.74677 19.902572,-20.8218 24.924582,-36.93677 12.40193,11.44313 26.57532,18.35658 40.04096,19.53111 5.73931,-12.24643 6.85471,-27.98859 3.15071,-44.46757 16.45896,3.71168 32.18898,2.61692 44.43967,-3.09283 -1.15297,-13.47503 -8.05792,-27.66545 -19.50475,-40.08438 16.10395,-5.01589 29.17413,-13.82739 36.92643,-24.8946 -7.74306,-11.10289 -20.83423,-19.94501 -36.97553,-24.97419 11.45043,-12.3926 18.37736,-26.55976 19.56987,-40.024945 -12.24254,-5.737602 -27.97887,-6.854238 -44.45258,-3.15433 3.70723,-16.459719 2.60719,-32.188389 -3.10783,-44.43553002 C 132.68389,1.840079 118.49779,8.74076 106.08119,20.181309 101.06125,4.078954 92.246028,-8.987475 81.176248,-16.734268 Z m -0.02015,13.628626 c 2.37295,2.40582898 4.46481,5.083972 6.34638,7.892025 3.51426,5.276927 6.22431,11.112835 8.20984,17.147273 0.75347,2.305574 1.40656,4.641102 1.96887,6.997506 -2.04517,2.409444 -3.99084,4.929374 -5.82704,7.542175 -3.03183,-4.466965 -6.6421,-8.18188 -10.68823,-10.910961 -4.05858,2.730201 -7.67931,6.452344 -10.71925,10.930082 -1.84017,-2.620864 -3.79007,-5.148412 -5.84047,-7.564913 1.14968,-4.806105 2.70278,-9.514108 4.70049,-14.044104 2.84445,-6.476234 6.65528,-12.580297 11.56364,-17.695561 0.0953,-0.0978 0.1905,-0.195742 0.28577,-0.293522 z m 58.166992,15.586129 c 0.85211,3.269973 1.32484,6.635041 1.55029,10.007658 0.405,6.327069 -0.16626,12.736143 -1.46399,18.954915 -0.50124,2.378154 -1.10431,4.73207 -1.79731,7.058484 -2.49004,0.890397 -4.95679,1.887735 -7.39334,2.975526 -0.34774,-5.163669 -1.54164,-9.966518 -3.57291,-14.161923 -5.38792,0.444147 -10.93892,2.15951 -16.32924,4.984191 -0.27999,-3.487788 -0.72407,-6.947931 -1.34307,-10.352339 3.39873,-3.587481 7.09771,-6.88801 11.09286,-9.812321 5.70151,-4.186344 12.05403,-7.567322 18.86242,-9.543087 0.13143,-0.03705 0.26296,-0.07406 0.39429,-0.111104 z m -116.341742,0.0093 c 1.61846,0.44629 3.22531,0.990588 4.78007,1.594735 5.12117,2.004312 9.93706,4.742535 14.37639,7.973674 4.04152,2.939361 7.7895,6.31938 11.23135,9.959598 -0.62597,3.382591 -1.07915,6.82142 -1.36994,10.288778 -5.39274,-2.831751 -10.94695,-4.553858 -16.33905,-5.002795 -2.04154,4.207785 -3.23963,9.028406 -3.58583,14.211532 -2.42855,-1.076261 -4.88637,-2.062852 -7.36699,-2.942969 -1.06324,-3.572391 -1.9123,-7.208375 -2.49442,-10.898043 -1.31303,-8.334896 -1.35192,-16.970351 0.76842,-25.18451 z m 58.16906,22.266342 c 1.66087,1.622914 3.12516,3.429442 4.44211,5.323706 0.68951,0.997877 1.32991,2.028138 1.93218,3.079915 -0.25058,0.41978 -0.50379,0.837972 -0.74879,1.261422 -2.09669,3.685168 -3.97098,7.486277 -5.60276,11.362617 -1.65513,-3.88572 -3.55367,-7.693683 -5.6751,-11.382771 -0.239,-0.41306 -0.48588,-0.820846 -0.73019,-1.230416 1.69785,-2.974631 3.74266,-5.765799 6.18257,-8.216553 0.0667,-0.066 0.13314,-0.13188 0.19998,-0.19792 z m 40.712252,10.514087 c 0.59643,2.205881 0.92739,4.475854 1.0852,6.751013 0.0661,0.99523 0.0918,1.99364 0.0858,2.99258 -0.87479,0.47215 -1.74599,0.95205 -2.60863,1.449 -3.65149,2.11535 -7.17172,4.4416 -10.52339,6.9541 0.5013,-4.15762 0.75713,-8.36832 0.76481,-12.58734 -9e-5,-0.18493 -0.006,-0.369611 -0.007,-0.554491 3.38328,-2.123744 7.04685,-3.844695 10.92699,-4.929932 0.092,-0.025 0.18403,-0.04993 0.27595,-0.07493 z m -81.429142,0.0046 c 1.13264,0.301056 2.25748,0.668381 3.34553,1.075904 2.74998,1.037307 5.3727,2.367755 7.84862,3.914489 -0.002,0.18799 -0.0078,0.37575 -0.0078,0.56379 0.0315,4.24491 0.31411,8.47841 0.84491,12.65504 -3.38144,-2.54271 -6.9355,-4.89576 -10.62364,-7.03368 -0.85124,-0.48688 -1.7106,-0.95737 -2.57349,-1.42007 -0.0289,-3.28407 0.31181,-6.566782 1.16582,-9.755473 z M 168.35181,53.3891 c 4.42848,0.0324 8.85114,0.52618 13.15372,1.5844 0.13234,0.0336 0.26456,0.0671 0.39687,0.10077 -0.89705,3.25796 -2.17018,6.40833 -3.66127,9.4418 -2.81278,5.68195 -6.51185,10.94708 -10.74508,15.6838 -1.62393,1.80973 -3.32438,3.54731 -5.08858,5.21622 -2.39405,-0.43579 -4.81574,-0.78573 -7.25485,-1.0542 2.68326,-4.94303 4.32798,-10.01259 4.7811,-14.94379 -5.19849,-2.34816 -11.29994,-3.54112 -17.86764,-3.56516 1.44176,-3.04924 2.73301,-6.10189 3.8163,-9.09402 4.73827,-1.40796 9.59318,-2.41718 14.51643,-2.95227 2.63655,-0.29052 5.29596,-0.43697 7.953,-0.41755 z m -173.7707915,5.2e-4 c 2.40409,0.0032 4.80815998,0.13859 7.19698,0.3917 4.94498,0.52219 9.8565195,1.56819 14.6347595,2.98897 1.09762,3.06665 2.35228,6.0989 3.74758,9.08058 -6.53898,0.0278 -12.6155695,1.21451 -17.7973595,3.54759 0.44349,4.94702 2.08741,10.03529 4.778,14.9965 -2.42058,0.27351 -4.82331,0.62772 -7.19853002,1.06608 C -2.7653615,82.89832 -5.3199215,80.17278 -7.6694915,77.26775 -12.974032,70.70602 -17.325092,63.24707 -19.595892,55.07324 c 1.62477,-0.42274 3.2881,-0.75455 4.93665,-1.00873 2.71862,-0.41241 5.4627105,-0.62825 8.2098305,-0.66817 0.34339,-0.005 0.68699,-0.0072 1.03043,-0.0067 z M 67.054118,64.07475 c 3.59919,1.2407 7.03643,3.5462 10.05778,6.64973 -2.49044,2.58841 -4.45832,6.02928 -5.69371,10.03763 -3.0225,-2.67159 -6.30985,-4.66209 -9.60251,-5.85701 0.93514,-4.25447 2.7113,-7.9907 5.23844,-10.83035 z m 27.90165,0.0801 c 2.58118,2.89928 4.39654,6.716 5.342832,11.05824 -3.712022,0.95571 -7.421942,2.97687 -10.750772,5.8937 -1.27441,-3.69496 -3.1378,-6.94206 -5.42085,-9.52293 3.18672,-3.52338 6.91349,-6.09913 10.82879,-7.42901 z m 47.224512,8.71058 c 3.09956,0.0219 6.19525,0.35482 9.20667,1.06867 0.0926,0.0226 0.18493,0.045 0.27751,0.0677 -0.62784,2.19775 -1.51899,4.32331 -2.56264,6.36963 -0.5995,1.16717 -1.26285,2.30447 -1.97042,3.41737 -1.19012,-0.0407 -2.38145,-0.06815 -3.57446,-0.06925 -4.24506,0.007 -8.48167,0.26531 -12.66434,0.77205 2.73573,-3.63724 5.23139,-7.52286 7.47448,-11.49698 1.26823,-0.0911 2.54088,-0.13813 3.8132,-0.12919 z m -121.345562,0.0026 c 1.00051,0.0082 2.00079,0.04848 2.99878,0.11627 0.17641,0.31346 0.3485,0.62923 0.52813,0.94102 2.13495,3.68675 4.48489,7.23973 7.02438,10.62055 -4.18595,-0.52523 -8.42813,-0.80132 -12.68088,-0.82528 -1.18239,0.005 -2.36309,0.03537 -3.54242,0.07907 -1.95454,-3.05509 -3.5306,-6.33087 -4.52996,-9.79785 1.13722,-0.28516 2.30125,-0.5091 3.45509,-0.68058 1.90279,-0.27819 3.82368,-0.42369 5.74642,-0.45062 0.33351,-0.0047 0.66695,-0.0053 1.00046,-0.0026 z m 25.84596,4.01215 c 2.76281,0.0036 5.67385,0.4819 8.6124,1.37511 -0.57755,3.30088 -0.38709,7.01574 0.59428,10.86187 -4.22403,-0.98505 -8.29783,-1.14065 -11.87886,-0.48937 -1.32737,-3.98995 -1.72242,-7.91862 -1.06867,-11.4515 1.03411,-0.17016 2.10006,-0.26659 3.1905,-0.29042 0.18283,-0.004 0.36617,-0.0059 0.55035,-0.0057 z m 68.724492,0.18552 c 1.28173,0.0077 2.53224,0.11348 3.73982,0.31988 0.74554,3.92373 0.23061,8.32541 -1.44849,12.75271 -3.70751,-0.88281 -7.92397,-0.91997 -12.26695,-0.06873 0.86018,-3.97579 0.86619,-7.8425 0.0543,-11.27683 3.18426,-1.08868 6.35728,-1.67703 9.36997,-1.72444 0.18434,-0.0029 0.36829,-0.0037 0.55139,-0.0026 z M 81.146278,87.44387 a 7.7519254,29.845238 0 0 1 3.29076,14.64252 7.5502654,30.642373 32.780498 0 1 10.92439,-11.18537 7.5502654,30.642373 32.780498 0 1 -5.22397,14.17795 7.1932199,32.163352 62.605665 0 1 15.630062,-4.73356 7.1932199,32.163352 62.605665 0 1 -12.341892,9.90895 32.891931,7.0338852 0 0 1 16.150962,2.99259 32.891931,7.0338852 0 0 1 -16.139592,2.98638 32.163352,7.1932199 27.394335 0 1 12.328972,9.91154 32.163352,7.1932199 27.394335 0 1 -15.618692,-4.73408 30.642373,7.5502654 57.219502 0 1 5.21054,14.17691 30.642373,7.5502654 57.219502 0 1 -10.92492,-11.19518 7.7519254,29.845238 0 0 1 -3.29024,14.6513 7.7519254,29.845238 0 0 1 -3.29437,-14.64717 7.5502654,30.642373 32.780498 0 1 -10.9244,11.19002 7.5502654,30.642373 32.780498 0 1 5.22191,-14.18002 7.1932199,32.163352 62.605665 0 1 -15.62799,4.73563 7.1932199,32.163352 62.605665 0 1 12.33568,-9.90895 32.891931,7.0338852 0 0 1 -16.14423,-2.98948 32.891931,7.0338852 0 0 1 16.14475,-2.98949 32.163352,7.1932199 27.394335 0 1 -12.33465,-9.91205 32.163352,7.1932199 27.394335 0 1 15.62075,4.73252 30.642373,7.5502654 57.219502 0 1 -5.2126,-14.17536 30.642373,7.5502654 57.219502 0 1 10.92595,11.19208 7.7519254,29.845238 0 0 1 3.29282,-14.64768 z m -40.09213,7.44916 c 1.25512,3.10146 3.31908,6.19533 6.07767,9.04337 -4.35168,1.21787 -8.07069,3.18438 -10.81588,5.68234 -3.3962,-2.89529 -5.9147,-6.20668 -7.25744,-9.67693 3.12569,-2.47695 7.26929,-4.19828 11.99565,-5.04878 z m 79.906242,0.1757 c 4.8035,0.86798 9.01583,2.63169 12.1915,5.15937 -1.44897,3.77108 -4.27328,7.35303 -8.13284,10.39678 -2.74233,-2.27696 -6.23861,-4.13146 -10.23245,-5.38881 3.03745,-3.14679 5.15267,-6.65334 6.17379,-10.16734 z m 44.43501,1.62367 c 4.82814,1.15114 9.5577,2.70899 14.10767,4.71548 6.47622,2.84448 12.58028,6.65527 17.69556,11.56363 0.0978,0.0953 0.19575,0.19049 0.29352,0.28577 -2.40581,2.37294 -5.08396,4.46488 -7.89202,6.34638 -5.27697,3.51432 -11.11283,6.22431 -17.14728,8.20984 -2.30542,0.75339 -4.64078,1.4071 -6.99699,1.96939 -2.09565,-1.77876 -4.27877,-3.47816 -6.52983,-5.09995 5.47306,-3.13404 9.98529,-7.00682 13.19041,-11.41687 -3.2081,-4.43367 -7.73604,-8.32659 -13.23382,-11.47424 2.24535,-1.6223 4.42285,-3.32097 6.51278,-5.09943 z M -3.1426315,96.70739 c 2.09416,1.77632 4.27553,3.47309 6.52466,5.09271 -5.48556,3.14025 -10.0059,7.02247 -13.21314,11.44375 3.20588,4.4227 7.72562,8.30627 13.21108,11.44788 -2.24005,1.61966 -4.4121,3.31603 -6.49728,5.09116 -3.61171,-0.86392 -7.1722405,-1.94359 -10.6458605,-3.27939 -7.8747,-3.03036 -15.372623,-7.31477 -21.426085,-13.2581 1.195727,-1.17849 2.470235,-2.29751 3.770829,-3.34192 4.296336,-3.43293 9.075826,-6.23455 14.093716,-8.46357 4.54783,-2.02212 9.3289205,-3.57337 14.1820805,-4.73252 z m 13.2291595,9.55135 c 0.73789,0.45109 1.48085,0.89542 2.23036,1.32912 3.67341,2.11517 7.465,4.00932 11.33419,5.66219 -3.87376,1.64436 -7.67092,3.53076 -11.35073,5.63893 -0.74529,0.43319 -1.48374,0.87666 -2.21743,1.32705 -3.7876495,-1.82179 -7.3364295,-4.10654 -10.36422952,-6.97167 0.83692,-0.795 1.72881002,-1.55009 2.63912002,-2.25464 2.3904,-1.8409 4.99701,-3.40841 7.7287195,-4.73098 z m 142.099342,0.002 c 3.70959,1.78517 7.19087,4.02962 10.18491,6.79855 0.0686,0.0643 0.13668,0.12834 0.20515,0.19276 -1.68383,1.60076 -3.55828,3.01266 -5.52369,4.28191 -1.54623,0.99245 -3.16383,1.88454 -4.82864,2.69079 -0.7472,-0.45704 -1.49916,-0.90697 -2.25826,-1.34617 -12.6606,-5.90195 -9.93556,-5.62581 -0.0171,-11.27838 0.75226,-0.43677 1.49711,-0.88518 2.23759,-1.33946 z m -114.924252,9.6051 c 2.74215,2.27579 6.23744,4.1295 10.22987,5.38624 -3.03539,3.14698 -5.14825,6.65302 -6.16759,10.1663 -4.80071,-0.86598 -9.01198,-2.62611 -12.1884,-5.15007 1.44566,-3.77237 4.26773,-7.35658 8.12612,-10.40247 z m 88.709312,1.00872 c 3.39753,2.89808 5.91553,6.21255 7.25589,9.68572 -3.1262,2.47294 -7.2682,4.19089 -11.99151,5.03948 -1.25334,-3.10275 -3.31654,-6.19816 -6.07509,-9.04802 4.34879,-1.21678 8.06571,-3.18173 10.81071,-5.67718 z m -81.380042,19.4784 c 3.70713,0.88002 7.92157,0.91485 12.2623,0.0625 -0.85892,3.97639 -0.86328,7.84344 -0.04961,11.27735 -4.73904,1.62181 -9.45427,2.1273 -13.6524,1.41335 -0.74889,-3.92298 -0.23698,-8.32497 1.43971,-12.75323 z m 61.809152,1.01544 c 4.22549,0.98688 8.30111,1.14299 11.88402,0.49248 1.3272,3.99326 1.72076,7.92489 1.06351,11.45925 -3.81056,0.62375 -8.05424,0.22257 -12.35791,-1.08882 0.57949,-3.30076 0.39069,-7.01574 -0.58962,-10.86291 z m 55.98418,3.65508 c 3.60876,3.41299 6.92835,7.12949 9.86761,11.14505 4.18637,5.70156 7.56731,12.05449 9.54309,18.86294 0.0371,0.13143 0.0741,0.26289 0.1111,0.39429 -3.27,0.85211 -6.63505,1.32382 -10.00766,1.54926 -6.32713,0.405 -12.73615,-0.16525 -18.95491,-1.46296 -2.3782,-0.50128 -4.73207,-1.10482 -7.05849,-1.79783 -1.09609,-3.06533 -2.34882,-6.09735 -3.7424,-9.078 6.53119,-0.0266 12.60158,-1.20938 17.78031,-3.5357 -0.43942,-4.94966 -2.08129,-10.04132 -4.77129,-15.00632 2.43216,-0.27445 4.84626,-0.62982 7.23264,-1.07073 z m -162.52445152,0.0496 c 2.39769002,0.43624 4.82284002,0.7863 7.26571002,1.05471 -2.68247,4.94658 -4.32486,10.01945 -4.77387,14.9531 5.17949,2.33445 11.2534995,3.52325 17.7906395,3.55327 -1.39267,2.97701 -2.64491,6.00495 -3.74086,9.06663 -3.54985,1.05331 -7.1627795,1.89546 -10.8282795,2.47375 -8.33485,1.31302 -16.9703805,1.35192 -25.1845005,-0.76843 0.44629,-1.61847 0.99063,-3.22481 1.59473,-4.77955 2.00431,-5.12119 4.74256,-9.93762 7.97367,-14.3769 2.9239305,-4.02031 6.2844305,-7.74968 9.90276048,-11.17658 z m 131.06590152,0.8754 c 4.16988,0.52138 8.39533,0.79554 12.63127,0.81958 1.19365,-0.004 2.38547,-0.0351 3.57601,-0.0791 1.90133,2.98051 3.44443,6.17522 4.45658,9.53689 0.026,0.0886 0.0514,0.17697 0.0775,0.26561 -2.28872,0.57481 -4.64369,0.89334 -7.00422,1.04542 -2.05783,0.12696 -4.12791,0.10635 -6.19136,-0.0341 -0.18286,-0.32517 -0.36145,-0.65224 -0.54777,-0.97565 -2.12782,-3.67172 -4.46885,-7.21061 -6.99802,-10.57868 z m -99.557232,0.0543 v 5.1e-4 c -2.53461,3.35593 -4.88238,6.88336 -7.01818,10.54458 -0.18036,0.31306 -0.3531,0.62994 -0.5302,0.94464 -4.42323,0.3116 -8.89344,0.0581 -13.19816,-1.01285 0.31239,-1.09178 0.69338,-2.17581 1.11621,-3.22461 0.92596,-2.28031 2.0794,-4.46856 3.40445,-6.55568 1.1861,0.0404 2.37362,0.0677 3.56257,0.0687 4.24444,-0.005 8.48069,-0.26088 12.66331,-0.76532 z m 41.36905,3.37085 c 1.27613,3.6996 3.14266,6.95046 5.42964,9.53275 -3.18407,3.52289 -6.90771,6.0996 -10.82052,7.43211 -2.58602,-2.89991 -4.40525,-6.72012 -5.35317,-11.06703 3.71036,-0.95832 7.41768,-2.98086 10.74405,-5.89783 z m 18.13326,0.34985 c 3.0228,2.67276 6.31059,4.66393 9.604072,5.85959 -0.937262,4.25562 -2.716432,7.99204 -5.246712,10.83035 -3.59581,-1.24271 -7.02924,-3.54834 -10.04745,-6.65024 2.48926,-2.58995 4.45615,-6.03091 5.69009,-10.0397 z m 18.950272,17.25993 h 5.1e-4 c 3.38036,2.54172 6.93317,4.89392 10.62003,7.03109 0.85469,0.48936 1.71733,0.96232 2.58382,1.42731 0.0241,3.19854 -0.30723,6.39894 -1.10019,9.50639 -0.0234,0.0894 -0.0462,0.17856 -0.0703,0.26769 -2.28017,-0.60514 -4.48529,-1.46433 -6.60839,-2.47014 -1.57759,-0.75273 -3.10743,-1.60304 -4.58835,-2.52904 0.002,-0.17805 0.008,-0.35572 0.008,-0.53382 -0.0297,-4.25972 -0.31239,-8.50825 -0.84491,-12.69948 z m -57.430092,0.061 c -0.50555,4.17417 -0.76364,8.40213 -0.77153,12.6385 1.6e-4,0.16961 0.0052,0.33893 0.0062,0.5085 -3.46244,2.17818 -7.2055,3.94076 -11.1988,5.01003 -0.29589,-1.09607 -0.528,-2.21796 -0.7059,-3.33003 -0.33428,-2.12369 -0.47828,-4.27046 -0.46612,-6.41666 0.86153,-0.46542 1.71911,-0.93884 2.56884,-1.42834 3.66724,-2.12294 7.2023,-4.45863 10.56731,-6.982 z m 28.72176,7.62434 c 1.65515,3.88552 3.55367,7.69331 5.67511,11.38225 0.24275,0.41999 0.49331,0.8347 0.74155,1.25108 -1.73978,3.05977 -3.84448,5.92249 -6.3872,8.41861 -0.82483,-0.80663 -1.60788,-1.66664 -2.33888,-2.54403 -1.525,-1.83952 -2.87034,-3.81108 -4.04988,-5.87096 0.24516,-0.41095 0.49297,-0.82009 0.73277,-1.23455 2.10621,-3.6975 3.98849,-7.51207 5.62653,-11.4024 z m 49.097782,4.28759 c 2.43762,1.08143 4.90472,2.0726 7.3949,2.95641 1.41919,4.761 2.4362,9.64059 2.97397,14.58877 0.77473,7.03086 0.52628,14.22255 -1.16685,21.10672 -0.0334,0.13241 -0.0664,0.26477 -0.10077,0.39688 -3.25775,-0.89707 -6.40846,-2.17078 -9.4418,-3.66179 -5.68195,-2.81283 -10.94704,-6.51133 -15.6838,-10.74457 -1.82679,-1.63923 -3.57993,-3.35657 -5.26324,-5.1387 0.62444,-3.38061 1.0761,-6.81749 1.36581,-10.28258 5.38753,2.83103 10.9366,4.5545 16.32458,5.00745 2.04784,-4.21151 3.24965,-9.03796 3.5972,-14.22859 z m -98.142332,0.0377 c 0.349,5.17124 1.54631,9.98025 3.58376,14.1795 5.38535,-0.44848 10.93249,-2.16645 16.3189,-4.99194 0.27987,3.47541 0.72298,6.92362 1.33945,10.31616 -2.54844,2.68823 -5.25687,5.22529 -8.14317,7.55975 -6.56172,5.30453 -14.02122,9.65559 -22.19503,11.9264 -0.42273,-1.62478 -0.75455,-3.28814 -1.00872,-4.93665 -0.82482,-5.4372 -0.86125,-10.97713 -0.28267,-16.43724 0.52219,-4.94496 1.56778,-9.85652 2.98845,-14.63476 2.49213,-0.892 4.96056,-1.89151 7.39903,-2.98122 z m 59.78653,14.99547 c 1.83404,2.61293 3.77729,5.1332 5.82032,7.54321 -0.86289,3.60233 -1.94025,7.15365 -3.27267,10.61847 -3.0303,7.87472 -7.31477,15.37262 -13.25811,21.42609 -1.17849,-1.19573 -2.29751,-2.47022 -3.34191,-3.77083 -3.43288,-4.29638 -6.23462,-9.07583 -8.46357,-14.09372 -2.02217,-4.54781 -3.57339,-9.32895 -4.73253,-14.18208 2.04306,-2.40872 3.98604,-4.92788 5.82032,-7.53959 3.0388,4.47929 6.65876,8.20304 10.71666,10.93525 4.05615,-2.73338 7.67427,-6.45766 10.71149,-10.9368 z" />
  </g>
</svg>
