<?xml version="1.0" encoding="UTF-8" standalone="no"?>
<!-- Created with Inkscape (http://www.inkscape.org/) -->

<svg
   width="210mm"
   height="297mm"
   viewBox="0 0 210 297"
   version="1.1"
   id="svg16313"
   inkscape:version="1.2.2 (b0a8486541, 2022-12-01)"
   sodipodi:docname="rose4.svg"
   xmlns:inkscape="http://www.inkscape.org/namespaces/inkscape"
   xmlns:sodipodi="http://sodipodi.sourceforge.net/DTD/sodipodi-0.dtd"
   xmlns="http://www.w3.org/2000/svg"
   xmlns:svg="http://www.w3.org/2000/svg">
  <sodipodi:namedview
     id="namedview16315"
     pagecolor="#ffffff"
     bordercolor="#666666"
     borderopacity="1.0"
     inkscape:showpageshadow="2"
     inkscape:pageopacity="0.0"
     inkscape:pagecheckerboard="0"
     inkscape:deskcolor="#d1d1d1"
     inkscape:document-units="mm"
     showgrid="false"
     inkscape:zoom="0.72960859"
     inkscape:cx="233.68694"
     inkscape:cy="562.63044"
     inkscape:window-width="1920"
     inkscape:window-height="997"
     inkscape:window-x="0"
     inkscape:window-y="27"
     inkscape:window-maximized="1"
     inkscape:current-layer="layer1" />
  <defs
     id="defs16310" />
  <g
     inkscape:label="Layer 1"
     inkscape:groupmode="layer"
     id="layer1">
    <path
       id="path8036"
       style="fill:#ff0000;stroke-width:0.490241"
       d="m 53.085813,80.043496 c -4.803487,-1.935523 -12.091632,-3.114755 -17.024708,-1.035317 -4.323405,4.414679 1.763523,9.772632 3.201612,14.139719 3.905019,7.532962 4.42879,16.059902 4.748499,24.362802 0.832039,11.49866 3.595715,23.81753 12.10328,32.1593 9.154909,6.91456 21.753587,8.50038 32.708209,5.68291 6.930253,-1.80109 13.113975,-6.27748 16.460125,-12.678 6.91069,-11.09266 7.41771,-24.43219 11.16417,-36.63043 1.91039,-6.391252 5.18176,-12.533135 10.52447,-16.681014 4.75071,-4.872427 -1.84672,-9.589646 -6.46937,-10.478189 -4.97429,-1.582185 -9.40529,-0.954147 -14.4271,0.661006 C 94.785275,48.928768 52.352958,63.728557 53.085813,80.043496 Z m 49.243057,4.623161 C 90.15365,97.854202 78.304188,112.34948 74.573413,130.34708 c -1.179764,3.07742 -0.482138,8.58773 -2.103371,10.19684 -4.998025,-1.46949 -8.292819,-6.75946 -7.093239,-11.90321 1.601596,-8.57014 7.10639,-15.74836 12.469321,-22.36711 C 75.371462,97.03411 67.565414,90.654743 60.26322,85.120376 69.375335,87.327699 77.29146,93.609661 81.860351,101.7514 88.005725,95.355264 94.554046,89.052394 102.32887,84.666657 Z"
       sodipodi:nodetypes="ccsssscccscccssscccc" />
  </g>
</svg>
