<?xml version="1.0" encoding="UTF-8" standalone="no"?>
<svg
   xmlns:dc="http://purl.org/dc/elements/1.1/"
   xmlns:cc="http://creativecommons.org/ns#"
   xmlns:rdf="http://www.w3.org/1999/02/22-rdf-syntax-ns#"
   xmlns:svg="http://www.w3.org/2000/svg"
   xmlns="http://www.w3.org/2000/svg"
   xmlns:sodipodi="http://sodipodi.sourceforge.net/DTD/sodipodi-0.dtd"
   xmlns:inkscape="http://www.inkscape.org/namespaces/inkscape"
   width="210mm"
   height="297mm"
   viewBox="0 0 210 297"
   version="1.1"
   id="svg8"
   inkscape:version="1.0.2 (e86c870879, 2021-01-15)"
   sodipodi:docname="duck-crossing.svg">
  <defs
     id="defs2" />
  <sodipodi:namedview
     id="base"
     pagecolor="#ffffff"
     bordercolor="#666666"
     borderopacity="1.0"
     inkscape:pageopacity="0.0"
     inkscape:pageshadow="2"
     inkscape:zoom="0.7"
     inkscape:cx="400"
     inkscape:cy="560"
     inkscape:document-units="mm"
     inkscape:current-layer="layer1"
     inkscape:document-rotation="0"
     showgrid="false"
     inkscape:window-width="1513"
     inkscape:window-height="992"
     inkscape:window-x="0"
     inkscape:window-y="27"
     inkscape:window-maximized="0" />
  <metadata
     id="metadata5">
    <rdf:RDF>
      <cc:Work
         rdf:about="">
        <dc:format>image/svg+xml</dc:format>
        <dc:type
           rdf:resource="http://purl.org/dc/dcmitype/StillImage" />
        <dc:title></dc:title>
      </cc:Work>
    </rdf:RDF>
  </metadata>
  <g
     inkscape:label="Layer 1"
     inkscape:groupmode="layer"
     id="layer1">
    <rect
       style="fill:#ffff00;stroke-width:0.264583"
       id="rect29"
       width="169.42841"
       height="169.42841"
       x="-154.04951"
       y="11.992858"
       rx="10"
       transform="rotate(-45)" />
    <path
       id="path24"
       style="fill:#000000;stroke-width:0.124364"
       d="m 6.3582596,163.97783 c -13.39983,-0.66951 -27.0977996,-7.81835 -32.7361896,-20.45693 -4.15186,-8.88136 -5.01258,-19.53221 -1.62501,-28.79372 1.56731,-3.25129 4.40287,-10.04762 8.03219,-9.30379 4.01935,8.18216 12.1685996,14.99246 21.6787297,14.59176 4.4873099,0.0531 12.4268003,-1.07844 11.5528303,-7.23906 C 12.36782,106.49582 6.0449396,102.71243 4.8964096,96.452361 1.5435797,83.993641 8.2337196,68.740427 21.20396,65.208767 c 9.42629,-2.574502 20.75478,-0.615626 27.02594,7.427754 3.75785,3.91975 4.4959,9.69607 7.11646,14.02792 4.06457,3.72618 11.04201,0.31862 14.36084,4.51629 0.27755,4.38126 -5.11023,6.36919 -8.14681,8.62183 -4.29721,2.603249 -8.98425,4.521979 -13.86736,5.633809 -2.63935,3.98271 -4.22047,10.30053 0.0629,13.78997 6.4456,5.90052 8.02909,15.68892 5.32288,23.75306 -9.83188,20.80113 -20.4971,21.95607 -46.7204704,20.99843 z M 46.05843,85.688561 c 5.62939,-3.44268 -4.34952,-8.97045 -4.23431,-2.31322 0.21212,1.90117 2.48676,3.31693 4.23431,2.31322 z"
       sodipodi:nodetypes="ccccccccccccccccccc" />
  </g>
</svg>
