<?xml version="1.0" encoding="UTF-8" standalone="no"?>
<!-- Created with Inkscape (http://www.inkscape.org/) -->

<svg
   width="210mm"
   height="297mm"
   viewBox="0 0 210 297"
   version="1.1"
   id="svg5"
   xml:space="preserve"
   inkscape:version="1.2.1 (9c6d41e410, 2022-07-14)"
   sodipodi:docname="mickey-mouse-2.svg"
   xmlns:inkscape="http://www.inkscape.org/namespaces/inkscape"
   xmlns:sodipodi="http://sodipodi.sourceforge.net/DTD/sodipodi-0.dtd"
   xmlns="http://www.w3.org/2000/svg"
   xmlns:svg="http://www.w3.org/2000/svg"><sodipodi:namedview
     id="namedview7"
     pagecolor="#ffffff"
     bordercolor="#666666"
     borderopacity="1.0"
     inkscape:showpageshadow="2"
     inkscape:pageopacity="0.0"
     inkscape:pagecheckerboard="0"
     inkscape:deskcolor="#d1d1d1"
     inkscape:document-units="mm"
     showgrid="false"
     inkscape:zoom="1.0318224"
     inkscape:cx="343.08231"
     inkscape:cy="255.37342"
     inkscape:window-width="1920"
     inkscape:window-height="997"
     inkscape:window-x="0"
     inkscape:window-y="27"
     inkscape:window-maximized="1"
     inkscape:current-layer="layer1" /><defs
     id="defs2" /><g
     inkscape:label="Layer 1"
     inkscape:groupmode="layer"
     id="layer1"><path
       id="path233"
       style="fill:#1a1a1a;stroke:#000000;stroke-width:0;stroke-dasharray:none;stroke-opacity:1"
       d="M 26.728298,8.3499837 A 19.00231,19.00231 0 0 0 7.7258398,27.351924 19.00231,19.00231 0 0 0 26.728298,46.354382 19.00231,19.00231 0 0 0 31.350238,45.772506 37.490376,37.490376 0 0 0 25.114443,66.461682 37.490376,37.490376 0 0 0 62.604661,103.9519 37.490376,37.490376 0 0 0 100.09488,66.461682 37.490376,37.490376 0 0 0 93.868386,45.774573 19.00231,19.00231 0 0 0 98.481541,46.354382 19.00231,19.00231 0 0 0 117.48349,27.351924 19.00231,19.00231 0 0 0 98.481541,8.3499837 19.00231,19.00231 0 0 0 79.479084,27.351924 19.00231,19.00231 0 0 0 80.527598,33.536043 37.490376,37.490376 0 0 0 62.604661,28.970947 37.490376,37.490376 0 0 0 44.682241,33.53656 19.00231,19.00231 0 0 0 45.730239,27.351924 19.00231,19.00231 0 0 0 26.728298,8.3499837 Z M 69.477627,44.148832 c 1.151066,0 2.47343,2.01581 3.207556,4.888591 0.976146,4.22425 0.767442,8.203487 1.137398,12.388391 -2.815228,0.513846 -5.772021,1.773412 -8.041369,3.426664 -0.40784,-2.800918 -0.612873,-5.57636 -0.614433,-8.365898 1.371666,-0.821716 2.877114,-1.493298 4.17959,-2.402954 -1.283696,-0.848966 -2.321211,-1.402263 -3.754293,-2.220019 0.470726,-2.231062 0.8104,-5.011033 2.235006,-6.787183 0.493566,-0.571566 1.127125,-0.927592 1.650545,-0.927592 z M 55.50742,44.775667 c 1.151067,0 2.473946,2.01581 3.208073,4.888591 0.976147,4.224252 0.767441,8.203483 1.137398,12.388391 -2.815231,0.513847 -5.772018,1.77341 -8.041369,3.426664 -0.40784,-2.800921 -0.612873,-5.576354 -0.614433,-8.365898 1.371667,-0.821717 2.876596,-1.493819 4.179073,-2.40347 -1.283697,-0.848976 -2.321206,-1.401749 -3.754293,-2.219503 0.47073,-2.231063 0.810916,-5.011034 2.235523,-6.787183 0.493567,-0.571567 1.126611,-0.927592 1.650028,-0.927592 z M 36.706501,66.34696 c 1.494546,0.03488 3.370301,0.749481 3.105236,1.440222 -0.134159,0.34959 -0.444722,0.341951 -1.224731,-0.03049 -0.34702,-0.165699 -0.832494,-0.350411 -1.079004,-0.41031 -0.44787,-0.10882 -0.448031,-0.108133 -0.341581,0.495576 0.348599,1.977129 1.713547,5.115331 3.172416,7.294129 11.071377,15.998034 31.613693,16.534363 43.889311,0 1.458868,-2.178798 2.823816,-5.317 3.172416,-7.294129 0.10645,-0.603709 0.106288,-0.604396 -0.341581,-0.495576 -0.24651,0.0599 -0.731985,0.244611 -1.079004,0.41031 -0.780009,0.37244 -1.090572,0.380079 -1.224732,0.03049 -0.353419,-0.920989 3.098582,-1.884833 4.379061,-1.222664 0.942259,0.48726 2.088815,2.327674 1.845366,2.962093 -0.20801,0.54207 -0.675556,0.246638 -1.157036,-0.731221 -0.296689,-0.60255 -0.651987,-1.072965 -0.937927,-1.241785 l -0.460437,-0.271818 -0.105937,0.814937 c -0.0584,0.44819 -0.276632,1.617756 -0.485241,2.599325 -1.709389,9.94088 -8.890689,17.178579 -13.392465,21.419364 -7.835152,7.365913 -15.676743,7.439953 -24.314795,0 C 45.624061,87.874628 38.443267,80.636929 36.733889,70.696049 36.525279,69.71448 36.307047,68.544924 36.248647,68.096724 l -0.106453,-0.814937 -0.45992,0.271818 c -0.28594,0.16883 -0.641238,0.639235 -0.937928,1.241785 -0.481479,0.977859 -0.949025,1.273291 -1.157035,0.731221 -0.24345,-0.634419 0.90259,-2.474843 1.844849,-2.962093 0.320119,-0.165545 0.776159,-0.229184 1.274341,-0.217558 z m 25.588102,3.779615 c 2.088526,0 3.278811,0.248205 4.836397,1.007173 2.817614,1.372948 4.028731,3.954826 2.946073,6.27972 -0.446788,0.959438 -1.811513,2.237141 -2.980179,2.790011 -2.147746,1.016048 -5.304353,1.310629 -7.595919,0.709001 -1.592268,-0.41804 -2.799891,-1.044539 -3.804419,-1.974557 -3.216124,-2.977554 -1.386326,-7.171053 3.726904,-8.541081 0.69365,-0.18586 1.590575,-0.270267 2.871143,-0.270267 z m -2.671672,1.97714 c -0.628227,0.01922 -0.948105,0.180482 -1.324467,0.538468 -0.733018,0.69725 -0.548799,1.795734 0.397909,2.372982 0.633158,0.38606 0.728731,0.38069 1.363741,-0.07855 1.046178,-0.756648 1.455831,-0.910049 2.622579,-0.982369 1.380606,-0.0856 1.743647,-0.238088 1.677417,-0.703316 -0.0646,-0.45393 -1.127821,-0.799957 -3.194637,-1.040247 -0.677741,-0.07879 -1.165605,-0.118505 -1.542542,-0.10697 z" /></g></svg>
