<?xml version="1.0" encoding="UTF-8" standalone="no"?>
<!-- Created with Inkscape (http://www.inkscape.org/) -->

<svg
   width="210mm"
   height="297mm"
   viewBox="0 0 210 297"
   version="1.1"
   id="svg1479"
   inkscape:version="1.2.1 (9c6d41e410, 2022-07-14)"
   sodipodi:docname="mouse-ouline.svg"
   xmlns:inkscape="http://www.inkscape.org/namespaces/inkscape"
   xmlns:sodipodi="http://sodipodi.sourceforge.net/DTD/sodipodi-0.dtd"
   xmlns="http://www.w3.org/2000/svg"
   xmlns:svg="http://www.w3.org/2000/svg">
  <sodipodi:namedview
     id="namedview1481"
     pagecolor="#ffffff"
     bordercolor="#666666"
     borderopacity="1.0"
     inkscape:showpageshadow="2"
     inkscape:pageopacity="0.0"
     inkscape:pagecheckerboard="0"
     inkscape:deskcolor="#d1d1d1"
     inkscape:document-units="mm"
     showgrid="false"
     inkscape:zoom="0.72960859"
     inkscape:cx="398.15869"
     inkscape:cy="124.03911"
     inkscape:window-width="1920"
     inkscape:window-height="997"
     inkscape:window-x="0"
     inkscape:window-y="27"
     inkscape:window-maximized="1"
     inkscape:current-layer="layer1" />
  <defs
     id="defs1476" />
  <g
     inkscape:label="Layer 1"
     inkscape:groupmode="layer"
     id="layer1">
    <path
       id="path233"
       style="fill:#1a1a1a;stroke:#000000;stroke-width:0.927589;stroke-dasharray:none;stroke-opacity:1"
       d="M 20.357475,4.5529764 A 19.00231,19.00231 0 0 0 1.3550246,23.554926 a 19.00231,19.00231 0 0 0 19.0024504,19.00245 19.00231,19.00231 0 0 0 4.62194,-0.58187 37.490376,37.490376 0 0 0 -6.23579,20.68917 37.490376,37.490376 0 0 0 37.49021,37.490224 37.490376,37.490376 0 0 0 37.490217,-37.490224 37.490376,37.490376 0 0 0 -6.22649,-20.68711 19.00231,19.00231 0 0 0 4.61315,0.57981 19.00231,19.00231 0 0 0 19.001948,-19.00245 19.00231,19.00231 0 0 0 -19.001948,-19.0019496 19.00231,19.00231 0 0 0 -19.00245,19.0019496 19.00231,19.00231 0 0 0 1.04851,6.18411 37.490376,37.490376 0 0 0 -17.922937,-4.56509 37.490376,37.490376 0 0 0 -17.92242,4.56561 19.00231,19.00231 0 0 0 1.048,-6.18463 19.00231,19.00231 0 0 0 -19.00194,-19.0019496 z" />
  </g>
</svg>
